2021-12-08 11:28:41.526 +07:00 ReqID:[] [INF] Starting host
2021-12-08 11:28:51.191 +07:00 ReqID:[0HMDQ0CTGPC06:00000001] [INF] HTTP GET /api/values started.
2021-12-08 11:28:54.234 +07:00 ReqID:[0HMDQ0CTGPC06:00000001] [INF] HTTP GET /api/values responded code: 404 in 2943.6250 ms
2021-12-08 11:29:13.729 +07:00 ReqID:[0HMDQ0CTGPC07:00000001] [INF] HTTP OPTIONS /api/v2/SysUser/CheckExistingUser started.
2021-12-08 11:29:13.740 +07:00 ReqID:[0HMDQ0CTGPC07:00000001] [INF] HTTP OPTIONS /api/v2/SysUser/CheckExistingUser responded code: 204 in 6.0907 ms
2021-12-08 11:29:13.754 +07:00 ReqID:[0HMDQ0CTGPC08:00000001] [INF] HTTP OPTIONS /api/v2/SysAccessRight/UserDefaultBranchCompanyAccessRight/cf4bd127-af9e-4e7b-b583-844ce920e607 started.
2021-12-08 11:29:13.769 +07:00 ReqID:[0HMDQ0CTGPC08:00000001] [INF] HTTP OPTIONS /api/v2/SysAccessRight/UserDefaultBranchCompanyAccessRight/cf4bd127-af9e-4e7b-b583-844ce920e607 responded code: 204 in 10.4090 ms
2021-12-08 11:29:13.773 +07:00 ReqID:[a7523e56-3541-472a-88c2-8497c692a88c] [INF] HTTP POST /api/v2/SysUser/CheckExistingUser started.
2021-12-08 11:29:13.776 +07:00 ReqID:[0353355c-368d-4cd9-8f49-33204bae9fe4] [INF] HTTP GET /api/v2/SysAccessRight/UserDefaultBranchCompanyAccessRight/cf4bd127-af9e-4e7b-b583-844ce920e607 started.
2021-12-08 11:29:29.321 +07:00 ReqID:[a7523e56-3541-472a-88c2-8497c692a88c] [INF] HTTP POST /api/v2/SysUser/CheckExistingUser responded code: 200 in 15540.5411 ms
2021-12-08 11:30:17.971 +07:00 ReqID:[0353355c-368d-4cd9-8f49-33204bae9fe4] [INF] HTTP GET /api/v2/SysAccessRight/UserDefaultBranchCompanyAccessRight/cf4bd127-af9e-4e7b-b583-844ce920e607 responded code: 200 in 64186.0161 ms
2021-12-08 11:30:20.900 +07:00 ReqID:[0HMDQ0CTGPC08:00000003] [INF] HTTP OPTIONS /api/v2/Home/GetTaskList started.
2021-12-08 11:30:20.905 +07:00 ReqID:[0HMDQ0CTGPC08:00000003] [INF] HTTP OPTIONS /api/v2/Home/GetTaskList responded code: 204 in 0.5656 ms
2021-12-08 11:30:20.912 +07:00 ReqID:[f01ef97e-74b8-43a1-8005-59542b19b1da] [INF] HTTP POST /api/v2/Home/GetTaskList started.
2021-12-08 11:30:20.928 +07:00 ReqID:[e49090dd-5b8a-41ee-abfe-517034ba53a6] [INF] HTTP POST /api/v2/Home/GetTaskList started.
2021-12-08 11:30:22.082 +07:00 ReqID:[e49090dd-5b8a-41ee-abfe-517034ba53a6] [INF] HTTP POST /api/v2/Home/GetTaskList responded code: 200 in 1151.5374 ms
2021-12-08 11:30:22.082 +07:00 ReqID:[f01ef97e-74b8-43a1-8005-59542b19b1da] [INF] HTTP POST /api/v2/Home/GetTaskList responded code: 200 in 1168.2776 ms
2021-12-08 11:30:35.631 +07:00 ReqID:[0HMDQ0CTGPC0A:00000001] [INF] HTTP OPTIONS /api/v2/CreditAppTable/Factoring/GetCreditAppTableList/ByCompany started.
2021-12-08 11:30:35.636 +07:00 ReqID:[0HMDQ0CTGPC0A:00000001] [INF] HTTP OPTIONS /api/v2/CreditAppTable/Factoring/GetCreditAppTableList/ByCompany responded code: 204 in 0.6003 ms
2021-12-08 11:30:35.641 +07:00 ReqID:[2bd90896-ee41-46a2-b3e2-aaaf4f00898c] [INF] HTTP POST /api/v2/CreditAppTable/Factoring/GetCreditAppTableList/ByCompany started.
2021-12-08 11:30:41.598 +07:00 ReqID:[2bd90896-ee41-46a2-b3e2-aaaf4f00898c] [INF] HTTP POST /api/v2/CreditAppTable/Factoring/GetCreditAppTableList/ByCompany responded code: 200 in 5953.8598 ms
2021-12-08 11:30:45.033 +07:00 ReqID:[0HMDQ0CTGPC0A:00000003] [INF] HTTP OPTIONS /api/v2/CreditAppTable/Factoring/GetCreditAppTableById/id=3601181d-6380-45e4-bdac-4d76cf546cfd started.
2021-12-08 11:30:45.036 +07:00 ReqID:[0HMDQ0CTGPC0A:00000003] [INF] HTTP OPTIONS /api/v2/CreditAppTable/Factoring/GetCreditAppTableById/id=3601181d-6380-45e4-bdac-4d76cf546cfd responded code: 204 in 0.5307 ms
2021-12-08 11:30:45.040 +07:00 ReqID:[ccf96b87-1199-4a1b-a34a-aa9d7598689a] [INF] HTTP GET /api/v2/CreditAppTable/Factoring/GetCreditAppTableById/id=3601181d-6380-45e4-bdac-4d76cf546cfd started.
2021-12-08 11:30:45.302 +07:00 ReqID:[0HMDQ0CTGPC0B:00000001] [INF] HTTP OPTIONS /api/v2/CreditAppTable/Factoring/GetCreditAppLineList/ByCompany started.
2021-12-08 11:30:45.306 +07:00 ReqID:[0HMDQ0CTGPC0B:00000001] [INF] HTTP OPTIONS /api/v2/CreditAppTable/Factoring/GetCreditAppLineList/ByCompany responded code: 204 in 0.4548 ms
2021-12-08 11:30:45.309 +07:00 ReqID:[553e61fe-b8a4-495f-9156-cc80d8c47ddf] [INF] HTTP POST /api/v2/CreditAppTable/Factoring/GetCreditAppLineList/ByCompany started.
2021-12-08 11:30:46.412 +07:00 ReqID:[553e61fe-b8a4-495f-9156-cc80d8c47ddf] [INF] HTTP POST /api/v2/CreditAppTable/Factoring/GetCreditAppLineList/ByCompany responded code: 200 in 1101.6796 ms
2021-12-08 11:30:48.791 +07:00 ReqID:[ccf96b87-1199-4a1b-a34a-aa9d7598689a] [INF] HTTP GET /api/v2/CreditAppTable/Factoring/GetCreditAppTableById/id=3601181d-6380-45e4-bdac-4d76cf546cfd responded code: 200 in 3749.2918 ms
2021-12-08 11:30:53.880 +07:00 ReqID:[0HMDQ0CTGPC0A:00000005] [INF] HTTP OPTIONS /api/v2/CreditAppTable/Factoring/RelatedInfo/VerificationTable/GetVerificationTableList/ByCompany started.
2021-12-08 11:30:53.883 +07:00 ReqID:[0HMDQ0CTGPC0A:00000005] [INF] HTTP OPTIONS /api/v2/CreditAppTable/Factoring/RelatedInfo/VerificationTable/GetVerificationTableList/ByCompany responded code: 204 in 0.4190 ms
2021-12-08 11:30:53.890 +07:00 ReqID:[d189bf12-7659-49fb-860b-cf8ed31b57c2] [INF] HTTP POST /api/v2/CreditAppTable/Factoring/RelatedInfo/VerificationTable/GetVerificationTableList/ByCompany started.
2021-12-08 11:30:54.968 +07:00 ReqID:[d189bf12-7659-49fb-860b-cf8ed31b57c2] [INF] HTTP POST /api/v2/CreditAppTable/Factoring/RelatedInfo/VerificationTable/GetVerificationTableList/ByCompany responded code: 200 in 1075.7597 ms
2021-12-08 11:30:55.170 +07:00 ReqID:[0HMDQ0CTGPC0A:00000007] [INF] HTTP OPTIONS /api/v2/CreditAppTable/Factoring/RelatedInfo/VerificationTable/GetBuyerTableByCreditAppTableDropDown started.
2021-12-08 11:30:55.172 +07:00 ReqID:[0HMDQ0CTGPC0A:00000007] [INF] HTTP OPTIONS /api/v2/CreditAppTable/Factoring/RelatedInfo/VerificationTable/GetBuyerTableByCreditAppTableDropDown responded code: 204 in 0.4529 ms
2021-12-08 11:30:55.176 +07:00 ReqID:[228732a6-a7a7-41f8-bd3c-56ba88e1443c] [INF] HTTP POST /api/v2/CreditAppTable/Factoring/RelatedInfo/VerificationTable/GetBuyerTableByCreditAppTableDropDown started.
2021-12-08 11:30:55.178 +07:00 ReqID:[0HMDQ0CTGPC0B:00000003] [INF] HTTP OPTIONS /api/v2/CreditAppTable/Factoring/RelatedInfo/VerificationTable/GetCustomerTableByDropDown started.
2021-12-08 11:30:55.180 +07:00 ReqID:[0HMDQ0CTGPC0B:00000003] [INF] HTTP OPTIONS /api/v2/CreditAppTable/Factoring/RelatedInfo/VerificationTable/GetCustomerTableByDropDown responded code: 204 in 0.3955 ms
2021-12-08 11:30:55.184 +07:00 ReqID:[5629007a-679b-4458-9674-169e251a4d15] [INF] HTTP POST /api/v2/CreditAppTable/Factoring/RelatedInfo/VerificationTable/GetCustomerTableByDropDown started.
2021-12-08 11:30:55.188 +07:00 ReqID:[0HMDQ0CTGPC0C:00000001] [INF] HTTP OPTIONS /api/v2/CreditAppTable/Factoring/RelatedInfo/VerificationTable/GetDocumentStatusDropDown started.
2021-12-08 11:30:55.190 +07:00 ReqID:[0HMDQ0CTGPC0C:00000001] [INF] HTTP OPTIONS /api/v2/CreditAppTable/Factoring/RelatedInfo/VerificationTable/GetDocumentStatusDropDown responded code: 204 in 0.5384 ms
2021-12-08 11:30:55.211 +07:00 ReqID:[1da2712e-5bfb-4584-b581-b289a609f68b] [INF] HTTP POST /api/v2/CreditAppTable/Factoring/RelatedInfo/VerificationTable/GetDocumentStatusDropDown started.
2021-12-08 11:30:55.494 +07:00 ReqID:[228732a6-a7a7-41f8-bd3c-56ba88e1443c] [INF] HTTP POST /api/v2/CreditAppTable/Factoring/RelatedInfo/VerificationTable/GetBuyerTableByCreditAppTableDropDown responded code: 200 in 316.3233 ms
2021-12-08 11:30:55.494 +07:00 ReqID:[5629007a-679b-4458-9674-169e251a4d15] [INF] HTTP POST /api/v2/CreditAppTable/Factoring/RelatedInfo/VerificationTable/GetCustomerTableByDropDown responded code: 200 in 307.2104 ms
2021-12-08 11:30:55.926 +07:00 ReqID:[1da2712e-5bfb-4584-b581-b289a609f68b] [INF] HTTP POST /api/v2/CreditAppTable/Factoring/RelatedInfo/VerificationTable/GetDocumentStatusDropDown responded code: 200 in 712.9922 ms
2021-12-08 11:31:00.229 +07:00 ReqID:[0HMDQ0CTGPC0C:00000003] [INF] HTTP OPTIONS /api/v2/CreditAppTable/Factoring/GetCreditAppTableList/ByCompany started.
2021-12-08 11:31:00.233 +07:00 ReqID:[0HMDQ0CTGPC0C:00000003] [INF] HTTP OPTIONS /api/v2/CreditAppTable/Factoring/GetCreditAppTableList/ByCompany responded code: 204 in 1.4856 ms
2021-12-08 11:31:00.240 +07:00 ReqID:[db492e82-2fb8-4fee-afb1-f6080eb01736] [INF] HTTP POST /api/v2/CreditAppTable/Factoring/GetCreditAppTableList/ByCompany started.
2021-12-08 11:31:00.876 +07:00 ReqID:[db492e82-2fb8-4fee-afb1-f6080eb01736] [INF] HTTP POST /api/v2/CreditAppTable/Factoring/GetCreditAppTableList/ByCompany responded code: 200 in 634.0266 ms
2021-12-08 11:31:07.408 +07:00 ReqID:[0HMDQ0CTGPC0D:00000001] [INF] HTTP OPTIONS /api/v2/CreditAppTable/Factoring/GetCreditAppTableById/id=4b3cd68c-ec95-4ae0-af76-908586fe2b33 started.
2021-12-08 11:31:07.412 +07:00 ReqID:[0HMDQ0CTGPC0D:00000001] [INF] HTTP OPTIONS /api/v2/CreditAppTable/Factoring/GetCreditAppTableById/id=4b3cd68c-ec95-4ae0-af76-908586fe2b33 responded code: 204 in 0.7560 ms
2021-12-08 11:31:07.419 +07:00 ReqID:[adf950c4-4be2-43b8-8fbe-9084a088f7bd] [INF] HTTP GET /api/v2/CreditAppTable/Factoring/GetCreditAppTableById/id=4b3cd68c-ec95-4ae0-af76-908586fe2b33 started.
2021-12-08 11:31:07.736 +07:00 ReqID:[0HMDQ0CTGPC0E:00000001] [INF] HTTP OPTIONS /api/v2/CreditAppTable/Factoring/GetCreditAppLineList/ByCompany started.
2021-12-08 11:31:07.739 +07:00 ReqID:[0HMDQ0CTGPC0E:00000001] [INF] HTTP OPTIONS /api/v2/CreditAppTable/Factoring/GetCreditAppLineList/ByCompany responded code: 204 in 0.4353 ms
2021-12-08 11:31:07.742 +07:00 ReqID:[7cdf39a2-24bf-49e6-9e7a-2b81a6fbfd92] [INF] HTTP POST /api/v2/CreditAppTable/Factoring/GetCreditAppLineList/ByCompany started.
2021-12-08 11:31:09.590 +07:00 ReqID:[7cdf39a2-24bf-49e6-9e7a-2b81a6fbfd92] [INF] HTTP POST /api/v2/CreditAppTable/Factoring/GetCreditAppLineList/ByCompany responded code: 200 in 1846.3469 ms
2021-12-08 11:31:10.775 +07:00 ReqID:[adf950c4-4be2-43b8-8fbe-9084a088f7bd] [INF] HTTP GET /api/v2/CreditAppTable/Factoring/GetCreditAppTableById/id=4b3cd68c-ec95-4ae0-af76-908586fe2b33 responded code: 200 in 3354.2165 ms
2021-12-08 11:31:16.161 +07:00 ReqID:[0HMDQ0CTGPC0F:00000001] [INF] HTTP OPTIONS /api/v2/CreditAppTable/Factoring/RelatedInfo/VerificationTable/GetVerificationTableList/ByCompany started.
2021-12-08 11:31:16.163 +07:00 ReqID:[0HMDQ0CTGPC0F:00000001] [INF] HTTP OPTIONS /api/v2/CreditAppTable/Factoring/RelatedInfo/VerificationTable/GetVerificationTableList/ByCompany responded code: 204 in 0.3263 ms
2021-12-08 11:31:16.167 +07:00 ReqID:[b0b407b9-26b2-4c0d-bb85-9396e8354b5c] [INF] HTTP POST /api/v2/CreditAppTable/Factoring/RelatedInfo/VerificationTable/GetVerificationTableList/ByCompany started.
2021-12-08 11:31:16.718 +07:00 ReqID:[b0b407b9-26b2-4c0d-bb85-9396e8354b5c] [INF] HTTP POST /api/v2/CreditAppTable/Factoring/RelatedInfo/VerificationTable/GetVerificationTableList/ByCompany responded code: 200 in 549.2858 ms
2021-12-08 11:31:17.466 +07:00 ReqID:[0HMDQ0CTGPC0F:00000003] [INF] HTTP OPTIONS /api/v2/CreditAppTable/Factoring/RelatedInfo/VerificationTable/GetBuyerTableByCreditAppTableDropDown started.
2021-12-08 11:31:17.470 +07:00 ReqID:[0HMDQ0CTGPC0F:00000003] [INF] HTTP OPTIONS /api/v2/CreditAppTable/Factoring/RelatedInfo/VerificationTable/GetBuyerTableByCreditAppTableDropDown responded code: 204 in 0.2800 ms
2021-12-08 11:31:17.471 +07:00 ReqID:[0HMDQ0CTGPC0G:00000001] [INF] HTTP OPTIONS /api/v2/CreditAppTable/Factoring/RelatedInfo/VerificationTable/GetCustomerTableByDropDown started.
2021-12-08 11:31:17.473 +07:00 ReqID:[fad250d6-1d11-4a12-b855-27388a823360] [INF] HTTP POST /api/v2/CreditAppTable/Factoring/RelatedInfo/VerificationTable/GetBuyerTableByCreditAppTableDropDown started.
2021-12-08 11:31:17.474 +07:00 ReqID:[0HMDQ0CTGPC0G:00000001] [INF] HTTP OPTIONS /api/v2/CreditAppTable/Factoring/RelatedInfo/VerificationTable/GetCustomerTableByDropDown responded code: 204 in 0.2103 ms
2021-12-08 11:31:17.476 +07:00 ReqID:[0HMDQ0CTGPC0H:00000001] [INF] HTTP OPTIONS /api/v2/CreditAppTable/Factoring/RelatedInfo/VerificationTable/GetDocumentStatusDropDown started.
2021-12-08 11:31:17.479 +07:00 ReqID:[56f91096-f32f-4252-a7e1-326547918b6a] [INF] HTTP POST /api/v2/CreditAppTable/Factoring/RelatedInfo/VerificationTable/GetCustomerTableByDropDown started.
2021-12-08 11:31:17.480 +07:00 ReqID:[0HMDQ0CTGPC0H:00000001] [INF] HTTP OPTIONS /api/v2/CreditAppTable/Factoring/RelatedInfo/VerificationTable/GetDocumentStatusDropDown responded code: 204 in 0.2357 ms
2021-12-08 11:31:17.485 +07:00 ReqID:[3e1719c0-31e3-4486-8da8-307cea99447e] [INF] HTTP POST /api/v2/CreditAppTable/Factoring/RelatedInfo/VerificationTable/GetDocumentStatusDropDown started.
2021-12-08 11:31:17.715 +07:00 ReqID:[3e1719c0-31e3-4486-8da8-307cea99447e] [INF] HTTP POST /api/v2/CreditAppTable/Factoring/RelatedInfo/VerificationTable/GetDocumentStatusDropDown responded code: 200 in 227.7673 ms
2021-12-08 11:31:17.730 +07:00 ReqID:[fad250d6-1d11-4a12-b855-27388a823360] [INF] HTTP POST /api/v2/CreditAppTable/Factoring/RelatedInfo/VerificationTable/GetBuyerTableByCreditAppTableDropDown responded code: 200 in 254.7744 ms
2021-12-08 11:31:17.743 +07:00 ReqID:[56f91096-f32f-4252-a7e1-326547918b6a] [INF] HTTP POST /api/v2/CreditAppTable/Factoring/RelatedInfo/VerificationTable/GetCustomerTableByDropDown responded code: 200 in 261.9380 ms
2021-12-08 11:31:20.831 +07:00 ReqID:[0HMDQ0CTGPC0G:00000003] [INF] HTTP OPTIONS /api/v2/CreditAppTable/Factoring/GetCreditAppTableList/ByCompany started.
2021-12-08 11:31:20.833 +07:00 ReqID:[0HMDQ0CTGPC0G:00000003] [INF] HTTP OPTIONS /api/v2/CreditAppTable/Factoring/GetCreditAppTableList/ByCompany responded code: 204 in 0.1808 ms
2021-12-08 11:31:20.835 +07:00 ReqID:[6e5aef5e-6758-4fc2-a038-ca1f2025d537] [INF] HTTP POST /api/v2/CreditAppTable/Factoring/GetCreditAppTableList/ByCompany started.
2021-12-08 11:31:21.453 +07:00 ReqID:[6e5aef5e-6758-4fc2-a038-ca1f2025d537] [INF] HTTP POST /api/v2/CreditAppTable/Factoring/GetCreditAppTableList/ByCompany responded code: 200 in 617.1613 ms
2021-12-08 11:31:27.987 +07:00 ReqID:[0HMDQ0CTGPC0I:00000001] [INF] HTTP OPTIONS /api/v2/CreditAppTable/Factoring/GetCreditAppTableById/id=9c833e39-5b50-4490-b2da-24dedd4e34b4 started.
2021-12-08 11:31:27.989 +07:00 ReqID:[0HMDQ0CTGPC0I:00000001] [INF] HTTP OPTIONS /api/v2/CreditAppTable/Factoring/GetCreditAppTableById/id=9c833e39-5b50-4490-b2da-24dedd4e34b4 responded code: 204 in 0.1571 ms
2021-12-08 11:31:27.993 +07:00 ReqID:[348a8102-cc5b-473d-921a-9753660d073f] [INF] HTTP GET /api/v2/CreditAppTable/Factoring/GetCreditAppTableById/id=9c833e39-5b50-4490-b2da-24dedd4e34b4 started.
2021-12-08 11:31:28.236 +07:00 ReqID:[0HMDQ0CTGPC0J:00000001] [INF] HTTP OPTIONS /api/v2/CreditAppTable/Factoring/GetCreditAppLineList/ByCompany started.
2021-12-08 11:31:28.238 +07:00 ReqID:[0HMDQ0CTGPC0J:00000001] [INF] HTTP OPTIONS /api/v2/CreditAppTable/Factoring/GetCreditAppLineList/ByCompany responded code: 204 in 0.1038 ms
2021-12-08 11:31:28.241 +07:00 ReqID:[174746a9-676b-4545-bfa8-8f33134d9b31] [INF] HTTP POST /api/v2/CreditAppTable/Factoring/GetCreditAppLineList/ByCompany started.
2021-12-08 11:31:29.785 +07:00 ReqID:[174746a9-676b-4545-bfa8-8f33134d9b31] [INF] HTTP POST /api/v2/CreditAppTable/Factoring/GetCreditAppLineList/ByCompany responded code: 200 in 1542.9778 ms
2021-12-08 11:31:31.071 +07:00 ReqID:[348a8102-cc5b-473d-921a-9753660d073f] [INF] HTTP GET /api/v2/CreditAppTable/Factoring/GetCreditAppTableById/id=9c833e39-5b50-4490-b2da-24dedd4e34b4 responded code: 200 in 3076.4835 ms
2021-12-08 11:31:35.830 +07:00 ReqID:[0HMDQ0CTGPC0K:00000001] [INF] HTTP OPTIONS /api/v2/CreditAppTable/Factoring/RelatedInfo/VerificationTable/GetVerificationTableList/ByCompany started.
2021-12-08 11:31:35.832 +07:00 ReqID:[0HMDQ0CTGPC0K:00000001] [INF] HTTP OPTIONS /api/v2/CreditAppTable/Factoring/RelatedInfo/VerificationTable/GetVerificationTableList/ByCompany responded code: 204 in 0.1380 ms
2021-12-08 11:31:35.835 +07:00 ReqID:[5d477c78-5d0f-4b36-bce5-14cf8a20ffd0] [INF] HTTP POST /api/v2/CreditAppTable/Factoring/RelatedInfo/VerificationTable/GetVerificationTableList/ByCompany started.
2021-12-08 11:31:36.389 +07:00 ReqID:[5d477c78-5d0f-4b36-bce5-14cf8a20ffd0] [INF] HTTP POST /api/v2/CreditAppTable/Factoring/RelatedInfo/VerificationTable/GetVerificationTableList/ByCompany responded code: 200 in 553.3926 ms
2021-12-08 11:31:37.145 +07:00 ReqID:[0HMDQ0CTGPC0K:00000003] [INF] HTTP OPTIONS /api/v2/CreditAppTable/Factoring/RelatedInfo/VerificationTable/GetBuyerTableByCreditAppTableDropDown started.
2021-12-08 11:31:37.146 +07:00 ReqID:[0HMDQ0CTGPC0K:00000003] [INF] HTTP OPTIONS /api/v2/CreditAppTable/Factoring/RelatedInfo/VerificationTable/GetBuyerTableByCreditAppTableDropDown responded code: 204 in 0.0888 ms
2021-12-08 11:31:37.157 +07:00 ReqID:[0HMDQ0CTGPC0K:00000004] [INF] HTTP OPTIONS /api/v2/CreditAppTable/Factoring/RelatedInfo/VerificationTable/GetCustomerTableByDropDown started.
2021-12-08 11:31:37.157 +07:00 ReqID:[68e17ce3-556f-4155-8341-fa2fcf49e21d] [INF] HTTP POST /api/v2/CreditAppTable/Factoring/RelatedInfo/VerificationTable/GetBuyerTableByCreditAppTableDropDown started.
2021-12-08 11:31:37.162 +07:00 ReqID:[0HMDQ0CTGPC0M:00000001] [INF] HTTP OPTIONS /api/v2/CreditAppTable/Factoring/RelatedInfo/VerificationTable/GetDocumentStatusDropDown started.
2021-12-08 11:31:37.163 +07:00 ReqID:[0HMDQ0CTGPC0K:00000004] [INF] HTTP OPTIONS /api/v2/CreditAppTable/Factoring/RelatedInfo/VerificationTable/GetCustomerTableByDropDown responded code: 204 in 0.1000 ms
2021-12-08 11:31:37.165 +07:00 ReqID:[0HMDQ0CTGPC0M:00000001] [INF] HTTP OPTIONS /api/v2/CreditAppTable/Factoring/RelatedInfo/VerificationTable/GetDocumentStatusDropDown responded code: 204 in 0.0610 ms
2021-12-08 11:31:37.168 +07:00 ReqID:[2e8f9d5f-4f79-481e-8410-0e89d3f0c340] [INF] HTTP POST /api/v2/CreditAppTable/Factoring/RelatedInfo/VerificationTable/GetCustomerTableByDropDown started.
2021-12-08 11:31:37.173 +07:00 ReqID:[0086c8d0-c910-4405-a9b3-f8cabb111fba] [INF] HTTP POST /api/v2/CreditAppTable/Factoring/RelatedInfo/VerificationTable/GetDocumentStatusDropDown started.
2021-12-08 11:31:37.404 +07:00 ReqID:[0086c8d0-c910-4405-a9b3-f8cabb111fba] [INF] HTTP POST /api/v2/CreditAppTable/Factoring/RelatedInfo/VerificationTable/GetDocumentStatusDropDown responded code: 200 in 228.0279 ms
2021-12-08 11:31:37.417 +07:00 ReqID:[68e17ce3-556f-4155-8341-fa2fcf49e21d] [INF] HTTP POST /api/v2/CreditAppTable/Factoring/RelatedInfo/VerificationTable/GetBuyerTableByCreditAppTableDropDown responded code: 200 in 253.3833 ms
2021-12-08 11:31:37.428 +07:00 ReqID:[2e8f9d5f-4f79-481e-8410-0e89d3f0c340] [INF] HTTP POST /api/v2/CreditAppTable/Factoring/RelatedInfo/VerificationTable/GetCustomerTableByDropDown responded code: 200 in 254.2562 ms
2021-12-08 11:31:40.561 +07:00 ReqID:[0HMDQ0CTGPC0K:00000006] [INF] HTTP OPTIONS /api/v2/CreditAppTable/Factoring/GetCreditAppTableList/ByCompany started.
2021-12-08 11:31:40.564 +07:00 ReqID:[0HMDQ0CTGPC0K:00000006] [INF] HTTP OPTIONS /api/v2/CreditAppTable/Factoring/GetCreditAppTableList/ByCompany responded code: 204 in 0.1631 ms
2021-12-08 11:31:40.567 +07:00 ReqID:[6434b815-0f47-471b-9a77-91a1085eaaff] [INF] HTTP POST /api/v2/CreditAppTable/Factoring/GetCreditAppTableList/ByCompany started.
2021-12-08 11:31:41.087 +07:00 ReqID:[6434b815-0f47-471b-9a77-91a1085eaaff] [INF] HTTP POST /api/v2/CreditAppTable/Factoring/GetCreditAppTableList/ByCompany responded code: 200 in 518.8056 ms
2021-12-08 11:31:46.909 +07:00 ReqID:[0HMDQ0CTGPC0N:00000001] [INF] HTTP OPTIONS /api/v2/CreditAppTable/Factoring/GetCreditAppTableList/ByCompany started.
2021-12-08 11:31:46.911 +07:00 ReqID:[0HMDQ0CTGPC0N:00000001] [INF] HTTP OPTIONS /api/v2/CreditAppTable/Factoring/GetCreditAppTableList/ByCompany responded code: 204 in 0.1048 ms
2021-12-08 11:31:46.913 +07:00 ReqID:[ec51fe71-44f5-49b9-8c74-e63fec138b44] [INF] HTTP POST /api/v2/CreditAppTable/Factoring/GetCreditAppTableList/ByCompany started.
2021-12-08 11:31:47.573 +07:00 ReqID:[ec51fe71-44f5-49b9-8c74-e63fec138b44] [INF] HTTP POST /api/v2/CreditAppTable/Factoring/GetCreditAppTableList/ByCompany responded code: 200 in 658.1806 ms
2021-12-08 11:31:51.159 +07:00 ReqID:[ead1dfbe-98b5-48fb-b4c5-a1d0eac10e0b] [INF] HTTP POST /api/v2/CreditAppTable/Factoring/GetCreditAppTableList/ByCompany started.
2021-12-08 11:31:51.747 +07:00 ReqID:[ead1dfbe-98b5-48fb-b4c5-a1d0eac10e0b] [INF] HTTP POST /api/v2/CreditAppTable/Factoring/GetCreditAppTableList/ByCompany responded code: 200 in 583.4272 ms
2021-12-08 11:31:56.634 +07:00 ReqID:[0HMDQ0CTGPC0O:00000001] [INF] HTTP OPTIONS /api/v2/CreditAppTable/Factoring/GetCreditAppTableById/id=9c833e39-5b50-4490-b2da-24dedd4e34b4 started.
2021-12-08 11:31:56.636 +07:00 ReqID:[0HMDQ0CTGPC0O:00000001] [INF] HTTP OPTIONS /api/v2/CreditAppTable/Factoring/GetCreditAppTableById/id=9c833e39-5b50-4490-b2da-24dedd4e34b4 responded code: 204 in 0.1316 ms
2021-12-08 11:31:56.640 +07:00 ReqID:[2e4fe402-21d8-4265-a93d-197a9de6ae31] [INF] HTTP GET /api/v2/CreditAppTable/Factoring/GetCreditAppTableById/id=9c833e39-5b50-4490-b2da-24dedd4e34b4 started.
2021-12-08 11:31:56.908 +07:00 ReqID:[0HMDQ0CTGPC0P:00000001] [INF] HTTP OPTIONS /api/v2/CreditAppTable/Factoring/GetCreditAppLineList/ByCompany started.
2021-12-08 11:31:56.910 +07:00 ReqID:[0HMDQ0CTGPC0P:00000001] [INF] HTTP OPTIONS /api/v2/CreditAppTable/Factoring/GetCreditAppLineList/ByCompany responded code: 204 in 0.0879 ms
2021-12-08 11:31:56.912 +07:00 ReqID:[cc46eb16-f387-4f27-b48d-d6de03b94996] [INF] HTTP POST /api/v2/CreditAppTable/Factoring/GetCreditAppLineList/ByCompany started.
2021-12-08 11:31:57.013 +07:00 ReqID:[2e4fe402-21d8-4265-a93d-197a9de6ae31] [INF] HTTP GET /api/v2/CreditAppTable/Factoring/GetCreditAppTableById/id=9c833e39-5b50-4490-b2da-24dedd4e34b4 responded code: 200 in 371.4711 ms
2021-12-08 11:31:57.428 +07:00 ReqID:[cc46eb16-f387-4f27-b48d-d6de03b94996] [INF] HTTP POST /api/v2/CreditAppTable/Factoring/GetCreditAppLineList/ByCompany responded code: 200 in 514.4916 ms
2021-12-08 11:32:02.060 +07:00 ReqID:[0HMDQ0CTGPC0P:00000003] [INF] HTTP OPTIONS /api/v2/CreditAppTable/Factoring/RelatedInfo/VerificationTable/GetVerificationTableList/ByCompany started.
2021-12-08 11:32:02.064 +07:00 ReqID:[0HMDQ0CTGPC0P:00000003] [INF] HTTP OPTIONS /api/v2/CreditAppTable/Factoring/RelatedInfo/VerificationTable/GetVerificationTableList/ByCompany responded code: 204 in 0.1128 ms
2021-12-08 11:32:02.068 +07:00 ReqID:[906fedd5-f8ce-4634-a54e-be9d33dcd96c] [INF] HTTP POST /api/v2/CreditAppTable/Factoring/RelatedInfo/VerificationTable/GetVerificationTableList/ByCompany started.
2021-12-08 11:32:02.643 +07:00 ReqID:[906fedd5-f8ce-4634-a54e-be9d33dcd96c] [INF] HTTP POST /api/v2/CreditAppTable/Factoring/RelatedInfo/VerificationTable/GetVerificationTableList/ByCompany responded code: 200 in 573.1230 ms
2021-12-08 11:32:03.348 +07:00 ReqID:[0HMDQ0CTGPC0P:00000005] [INF] HTTP OPTIONS /api/v2/CreditAppTable/Factoring/RelatedInfo/VerificationTable/GetBuyerTableByCreditAppTableDropDown started.
2021-12-08 11:32:03.350 +07:00 ReqID:[0HMDQ0CTGPC0P:00000005] [INF] HTTP OPTIONS /api/v2/CreditAppTable/Factoring/RelatedInfo/VerificationTable/GetBuyerTableByCreditAppTableDropDown responded code: 204 in 0.0820 ms
2021-12-08 11:32:03.352 +07:00 ReqID:[0HMDQ0CTGPC0O:00000003] [INF] HTTP OPTIONS /api/v2/CreditAppTable/Factoring/RelatedInfo/VerificationTable/GetCustomerTableByDropDown started.
2021-12-08 11:32:03.352 +07:00 ReqID:[e59c163a-2b59-486a-9d39-a254dbb7aea7] [INF] HTTP POST /api/v2/CreditAppTable/Factoring/RelatedInfo/VerificationTable/GetBuyerTableByCreditAppTableDropDown started.
2021-12-08 11:32:03.353 +07:00 ReqID:[0HMDQ0CTGPC0O:00000003] [INF] HTTP OPTIONS /api/v2/CreditAppTable/Factoring/RelatedInfo/VerificationTable/GetCustomerTableByDropDown responded code: 204 in 0.1281 ms
2021-12-08 11:32:03.358 +07:00 ReqID:[0HMDQ0CTGPC0Q:00000001] [INF] HTTP OPTIONS /api/v2/CreditAppTable/Factoring/RelatedInfo/VerificationTable/GetDocumentStatusDropDown started.
2021-12-08 11:32:03.361 +07:00 ReqID:[325ea447-ccaf-4552-8da6-1295ffaf89b6] [INF] HTTP POST /api/v2/CreditAppTable/Factoring/RelatedInfo/VerificationTable/GetCustomerTableByDropDown started.
2021-12-08 11:32:03.361 +07:00 ReqID:[0HMDQ0CTGPC0Q:00000001] [INF] HTTP OPTIONS /api/v2/CreditAppTable/Factoring/RelatedInfo/VerificationTable/GetDocumentStatusDropDown responded code: 204 in 0.0918 ms
2021-12-08 11:32:03.370 +07:00 ReqID:[9fdcef8e-d77f-49b8-8ec1-6a1c874e69d6] [INF] HTTP POST /api/v2/CreditAppTable/Factoring/RelatedInfo/VerificationTable/GetDocumentStatusDropDown started.
2021-12-08 11:32:03.622 +07:00 ReqID:[325ea447-ccaf-4552-8da6-1295ffaf89b6] [INF] HTTP POST /api/v2/CreditAppTable/Factoring/RelatedInfo/VerificationTable/GetCustomerTableByDropDown responded code: 200 in 258.2235 ms
2021-12-08 11:32:03.622 +07:00 ReqID:[e59c163a-2b59-486a-9d39-a254dbb7aea7] [INF] HTTP POST /api/v2/CreditAppTable/Factoring/RelatedInfo/VerificationTable/GetBuyerTableByCreditAppTableDropDown responded code: 200 in 266.4518 ms
2021-12-08 11:32:03.622 +07:00 ReqID:[9fdcef8e-d77f-49b8-8ec1-6a1c874e69d6] [INF] HTTP POST /api/v2/CreditAppTable/Factoring/RelatedInfo/VerificationTable/GetDocumentStatusDropDown responded code: 200 in 250.4083 ms
2021-12-08 11:32:05.587 +07:00 ReqID:[0HMDQ0CTGPC0Q:00000003] [INF] HTTP OPTIONS /api/v2/CreditAppTable/Factoring/RelatedInfo/VerificationTable/GetVerificationTableInitialData/id=9c833e39-5b50-4490-b2da-24dedd4e34b4 started.
2021-12-08 11:32:05.590 +07:00 ReqID:[0HMDQ0CTGPC0Q:00000003] [INF] HTTP OPTIONS /api/v2/CreditAppTable/Factoring/RelatedInfo/VerificationTable/GetVerificationTableInitialData/id=9c833e39-5b50-4490-b2da-24dedd4e34b4 responded code: 204 in 0.1220 ms
2021-12-08 11:32:05.594 +07:00 ReqID:[68903541-6d7c-48c7-948f-e92b1b23d13f] [INF] HTTP GET /api/v2/CreditAppTable/Factoring/RelatedInfo/VerificationTable/GetVerificationTableInitialData/id=9c833e39-5b50-4490-b2da-24dedd4e34b4 started.
2021-12-08 11:32:06.211 +07:00 ReqID:[68903541-6d7c-48c7-948f-e92b1b23d13f] [INF] HTTP GET /api/v2/CreditAppTable/Factoring/RelatedInfo/VerificationTable/GetVerificationTableInitialData/id=9c833e39-5b50-4490-b2da-24dedd4e34b4 responded code: 200 in 615.8641 ms
2021-12-08 11:32:06.214 +07:00 ReqID:[97567f1b-7b1e-492f-8012-d3b325e19b90] [INF] HTTP POST /api/v2/CreditAppTable/Factoring/RelatedInfo/VerificationTable/GetBuyerTableByCreditAppTableDropDown started.
2021-12-08 11:32:06.215 +07:00 ReqID:[d49e60ee-0831-41d5-87c9-c6622abc3425] [INF] HTTP POST /api/v2/CreditAppTable/Factoring/RelatedInfo/VerificationTable/GetCustomerTableByDropDown started.
2021-12-08 11:32:06.447 +07:00 ReqID:[97567f1b-7b1e-492f-8012-d3b325e19b90] [INF] HTTP POST /api/v2/CreditAppTable/Factoring/RelatedInfo/VerificationTable/GetBuyerTableByCreditAppTableDropDown responded code: 200 in 231.7767 ms
2021-12-08 11:32:06.469 +07:00 ReqID:[d49e60ee-0831-41d5-87c9-c6622abc3425] [INF] HTTP POST /api/v2/CreditAppTable/Factoring/RelatedInfo/VerificationTable/GetCustomerTableByDropDown responded code: 200 in 252.0615 ms
2021-12-08 11:32:06.474 +07:00 ReqID:[0HMDQ0CTGPC0P:00000008] [INF] HTTP OPTIONS /api/v2/CreditAppTable/Factoring/RelatedInfo/VerificationTable/ValidateIsManualNumberSeq/companyId=0a099e6f-9ba8-4a06-9e7e-5cc28123a90e started.
2021-12-08 11:32:06.476 +07:00 ReqID:[0HMDQ0CTGPC0P:00000008] [INF] HTTP OPTIONS /api/v2/CreditAppTable/Factoring/RelatedInfo/VerificationTable/ValidateIsManualNumberSeq/companyId=0a099e6f-9ba8-4a06-9e7e-5cc28123a90e responded code: 204 in 0.1028 ms
2021-12-08 11:32:06.479 +07:00 ReqID:[6e7a706b-18c6-4710-b867-1de510cb554a] [INF] HTTP GET /api/v2/CreditAppTable/Factoring/RelatedInfo/VerificationTable/ValidateIsManualNumberSeq/companyId=0a099e6f-9ba8-4a06-9e7e-5cc28123a90e started.
2021-12-08 11:32:07.049 +07:00 ReqID:[6e7a706b-18c6-4710-b867-1de510cb554a] [INF] HTTP GET /api/v2/CreditAppTable/Factoring/RelatedInfo/VerificationTable/ValidateIsManualNumberSeq/companyId=0a099e6f-9ba8-4a06-9e7e-5cc28123a90e responded code: 200 in 568.5842 ms
2021-12-08 11:32:25.809 +07:00 ReqID:[0HMDQ0CTGPC0P:0000000A] [INF] HTTP OPTIONS /api/v2/CreditAppTable/Factoring/RelatedInfo/VerificationTable/GetVerificationTableList/ByCompany started.
2021-12-08 11:32:25.810 +07:00 ReqID:[0HMDQ0CTGPC0P:0000000A] [INF] HTTP OPTIONS /api/v2/CreditAppTable/Factoring/RelatedInfo/VerificationTable/GetVerificationTableList/ByCompany responded code: 204 in 0.1002 ms
2021-12-08 11:32:25.817 +07:00 ReqID:[0253082a-2ac3-4a51-a46b-2d6202b87c1d] [INF] HTTP POST /api/v2/CreditAppTable/Factoring/RelatedInfo/VerificationTable/GetVerificationTableList/ByCompany started.
2021-12-08 11:32:26.365 +07:00 ReqID:[0253082a-2ac3-4a51-a46b-2d6202b87c1d] [INF] HTTP POST /api/v2/CreditAppTable/Factoring/RelatedInfo/VerificationTable/GetVerificationTableList/ByCompany responded code: 200 in 544.7407 ms
2021-12-08 11:32:27.107 +07:00 ReqID:[0HMDQ0CTGPC0P:0000000C] [INF] HTTP OPTIONS /api/v2/CreditAppTable/Factoring/RelatedInfo/VerificationTable/GetBuyerTableByCreditAppTableDropDown started.
2021-12-08 11:32:27.109 +07:00 ReqID:[0HMDQ0CTGPC0P:0000000C] [INF] HTTP OPTIONS /api/v2/CreditAppTable/Factoring/RelatedInfo/VerificationTable/GetBuyerTableByCreditAppTableDropDown responded code: 204 in 0.0890 ms
2021-12-08 11:32:27.111 +07:00 ReqID:[0HMDQ0CTGPC0Q:00000006] [INF] HTTP OPTIONS /api/v2/CreditAppTable/Factoring/RelatedInfo/VerificationTable/GetCustomerTableByDropDown started.
2021-12-08 11:32:27.112 +07:00 ReqID:[0133616f-7edd-4123-bfc4-0a5cf3689a85] [INF] HTTP POST /api/v2/CreditAppTable/Factoring/RelatedInfo/VerificationTable/GetBuyerTableByCreditAppTableDropDown started.
2021-12-08 11:32:27.113 +07:00 ReqID:[0HMDQ0CTGPC0Q:00000006] [INF] HTTP OPTIONS /api/v2/CreditAppTable/Factoring/RelatedInfo/VerificationTable/GetCustomerTableByDropDown responded code: 204 in 0.0747 ms
2021-12-08 11:32:27.115 +07:00 ReqID:[0HMDQ0CTGPC0O:00000005] [INF] HTTP OPTIONS /api/v2/CreditAppTable/Factoring/RelatedInfo/VerificationTable/GetDocumentStatusDropDown started.
2021-12-08 11:32:27.117 +07:00 ReqID:[206c1d80-ac5a-4b19-b631-57ec458c7767] [INF] HTTP POST /api/v2/CreditAppTable/Factoring/RelatedInfo/VerificationTable/GetCustomerTableByDropDown started.
2021-12-08 11:32:27.117 +07:00 ReqID:[0HMDQ0CTGPC0O:00000005] [INF] HTTP OPTIONS /api/v2/CreditAppTable/Factoring/RelatedInfo/VerificationTable/GetDocumentStatusDropDown responded code: 204 in 0.0653 ms
2021-12-08 11:32:27.126 +07:00 ReqID:[91dc121a-143c-4405-ab95-0d97c5ebeea9] [INF] HTTP POST /api/v2/CreditAppTable/Factoring/RelatedInfo/VerificationTable/GetDocumentStatusDropDown started.
2021-12-08 11:32:27.354 +07:00 ReqID:[206c1d80-ac5a-4b19-b631-57ec458c7767] [INF] HTTP POST /api/v2/CreditAppTable/Factoring/RelatedInfo/VerificationTable/GetCustomerTableByDropDown responded code: 200 in 234.5043 ms
2021-12-08 11:32:27.366 +07:00 ReqID:[0133616f-7edd-4123-bfc4-0a5cf3689a85] [INF] HTTP POST /api/v2/CreditAppTable/Factoring/RelatedInfo/VerificationTable/GetBuyerTableByCreditAppTableDropDown responded code: 200 in 252.2559 ms
2021-12-08 11:32:27.382 +07:00 ReqID:[91dc121a-143c-4405-ab95-0d97c5ebeea9] [INF] HTTP POST /api/v2/CreditAppTable/Factoring/RelatedInfo/VerificationTable/GetDocumentStatusDropDown responded code: 200 in 254.3518 ms
2021-12-08 11:34:58.933 +07:00 ReqID:[0HMDQ0CTGPC0R:00000001] [INF] HTTP OPTIONS /api/v2/CreditAppTable/Factoring/RelatedInfo/VerificationTable/GetVerificationTableList/ByCompany started.
2021-12-08 11:34:58.936 +07:00 ReqID:[0HMDQ0CTGPC0R:00000001] [INF] HTTP OPTIONS /api/v2/CreditAppTable/Factoring/RelatedInfo/VerificationTable/GetVerificationTableList/ByCompany responded code: 204 in 0.1048 ms
2021-12-08 11:34:58.938 +07:00 ReqID:[1b4a86e2-083b-4c92-8e8c-e2bd00d57d92] [INF] HTTP POST /api/v2/CreditAppTable/Factoring/RelatedInfo/VerificationTable/GetVerificationTableList/ByCompany started.
2021-12-08 11:34:59.528 +07:00 ReqID:[1b4a86e2-083b-4c92-8e8c-e2bd00d57d92] [INF] HTTP POST /api/v2/CreditAppTable/Factoring/RelatedInfo/VerificationTable/GetVerificationTableList/ByCompany responded code: 200 in 588.4147 ms
2021-12-08 11:35:00.249 +07:00 ReqID:[0HMDQ0CTGPC0R:00000003] [INF] HTTP OPTIONS /api/v2/CreditAppTable/Factoring/RelatedInfo/VerificationTable/GetBuyerTableByCreditAppTableDropDown started.
2021-12-08 11:35:00.252 +07:00 ReqID:[0HMDQ0CTGPC0R:00000003] [INF] HTTP OPTIONS /api/v2/CreditAppTable/Factoring/RelatedInfo/VerificationTable/GetBuyerTableByCreditAppTableDropDown responded code: 204 in 0.0920 ms
2021-12-08 11:35:00.254 +07:00 ReqID:[7d16f9ad-7390-491b-9deb-ef5aaae7e2a5] [INF] HTTP POST /api/v2/CreditAppTable/Factoring/RelatedInfo/VerificationTable/GetBuyerTableByCreditAppTableDropDown started.
2021-12-08 11:35:00.257 +07:00 ReqID:[0HMDQ0CTGPC0S:00000001] [INF] HTTP OPTIONS /api/v2/CreditAppTable/Factoring/RelatedInfo/VerificationTable/GetCustomerTableByDropDown started.
2021-12-08 11:35:00.268 +07:00 ReqID:[0HMDQ0CTGPC0T:00000001] [INF] HTTP OPTIONS /api/v2/CreditAppTable/Factoring/RelatedInfo/VerificationTable/GetDocumentStatusDropDown started.
2021-12-08 11:35:00.269 +07:00 ReqID:[0HMDQ0CTGPC0S:00000001] [INF] HTTP OPTIONS /api/v2/CreditAppTable/Factoring/RelatedInfo/VerificationTable/GetCustomerTableByDropDown responded code: 204 in 0.0837 ms
2021-12-08 11:35:00.270 +07:00 ReqID:[0HMDQ0CTGPC0T:00000001] [INF] HTTP OPTIONS /api/v2/CreditAppTable/Factoring/RelatedInfo/VerificationTable/GetDocumentStatusDropDown responded code: 204 in 0.0754 ms
2021-12-08 11:35:00.313 +07:00 ReqID:[184c0d44-ddb1-4a81-b864-e178fe6e418e] [INF] HTTP POST /api/v2/CreditAppTable/Factoring/RelatedInfo/VerificationTable/GetCustomerTableByDropDown started.
2021-12-08 11:35:00.315 +07:00 ReqID:[ee08facf-e50a-4160-9420-63bae76d4518] [INF] HTTP POST /api/v2/CreditAppTable/Factoring/RelatedInfo/VerificationTable/GetDocumentStatusDropDown started.
2021-12-08 11:35:00.505 +07:00 ReqID:[7d16f9ad-7390-491b-9deb-ef5aaae7e2a5] [INF] HTTP POST /api/v2/CreditAppTable/Factoring/RelatedInfo/VerificationTable/GetBuyerTableByCreditAppTableDropDown responded code: 200 in 248.8885 ms
2021-12-08 11:35:00.568 +07:00 ReqID:[184c0d44-ddb1-4a81-b864-e178fe6e418e] [INF] HTTP POST /api/v2/CreditAppTable/Factoring/RelatedInfo/VerificationTable/GetCustomerTableByDropDown responded code: 200 in 251.2125 ms
2021-12-08 11:35:00.569 +07:00 ReqID:[ee08facf-e50a-4160-9420-63bae76d4518] [INF] HTTP POST /api/v2/CreditAppTable/Factoring/RelatedInfo/VerificationTable/GetDocumentStatusDropDown responded code: 200 in 249.9406 ms
2021-12-08 11:35:04.285 +07:00 ReqID:[0HMDQ0CTGPC0T:00000003] [INF] HTTP OPTIONS /api/v2/CreditAppTable/Factoring/RelatedInfo/VerificationTable/GetVerificationTableById/id=1fdcad95-11ce-4791-84e1-0d4c8061799e started.
2021-12-08 11:35:04.288 +07:00 ReqID:[0HMDQ0CTGPC0T:00000003] [INF] HTTP OPTIONS /api/v2/CreditAppTable/Factoring/RelatedInfo/VerificationTable/GetVerificationTableById/id=1fdcad95-11ce-4791-84e1-0d4c8061799e responded code: 204 in 0.2056 ms
2021-12-08 11:35:04.292 +07:00 ReqID:[7f3fb588-1703-451d-9035-dba3248eb75c] [INF] HTTP GET /api/v2/CreditAppTable/Factoring/RelatedInfo/VerificationTable/GetVerificationTableById/id=1fdcad95-11ce-4791-84e1-0d4c8061799e started.
2021-12-08 11:35:04.320 +07:00 ReqID:[0HMDQ0CTGPC0S:00000003] [INF] HTTP OPTIONS /api/v2/CreditAppTable/Factoring/RelatedInfo/VerificationTable/GetAccessModeByParentVerificationLine/id=1fdcad95-11ce-4791-84e1-0d4c8061799e started.
2021-12-08 11:35:04.322 +07:00 ReqID:[0HMDQ0CTGPC0S:00000003] [INF] HTTP OPTIONS /api/v2/CreditAppTable/Factoring/RelatedInfo/VerificationTable/GetAccessModeByParentVerificationLine/id=1fdcad95-11ce-4791-84e1-0d4c8061799e responded code: 204 in 0.0720 ms
2021-12-08 11:35:04.324 +07:00 ReqID:[22951ff5-e084-4b9e-8c35-61031cd01b16] [INF] HTTP GET /api/v2/CreditAppTable/Factoring/RelatedInfo/VerificationTable/GetAccessModeByParentVerificationLine/id=1fdcad95-11ce-4791-84e1-0d4c8061799e started.
2021-12-08 11:35:04.792 +07:00 ReqID:[7f3fb588-1703-451d-9035-dba3248eb75c] [INF] HTTP GET /api/v2/CreditAppTable/Factoring/RelatedInfo/VerificationTable/GetVerificationTableById/id=1fdcad95-11ce-4791-84e1-0d4c8061799e responded code: 200 in 497.7054 ms
2021-12-08 11:35:04.794 +07:00 ReqID:[22951ff5-e084-4b9e-8c35-61031cd01b16] [INF] HTTP GET /api/v2/CreditAppTable/Factoring/RelatedInfo/VerificationTable/GetAccessModeByParentVerificationLine/id=1fdcad95-11ce-4791-84e1-0d4c8061799e responded code: 200 in 468.4320 ms
2021-12-08 11:35:04.796 +07:00 ReqID:[e4ea6fd9-5b0d-41a2-ab31-0b0a8056094a] [INF] HTTP POST /api/v2/CreditAppTable/Factoring/RelatedInfo/VerificationTable/GetBuyerTableByCreditAppTableDropDown started.
2021-12-08 11:35:04.798 +07:00 ReqID:[13f11b27-eca4-4d69-afb6-87fd133151fa] [INF] HTTP POST /api/v2/CreditAppTable/Factoring/RelatedInfo/VerificationTable/GetCustomerTableByDropDown started.
2021-12-08 11:35:04.921 +07:00 ReqID:[0HMDQ0CTGPC0R:00000005] [INF] HTTP OPTIONS /api/v2/CreditAppTable/Factoring/RelatedInfo/VerificationTable/GetVerificationLineList/ByCompany started.
2021-12-08 11:35:04.923 +07:00 ReqID:[0HMDQ0CTGPC0R:00000005] [INF] HTTP OPTIONS /api/v2/CreditAppTable/Factoring/RelatedInfo/VerificationTable/GetVerificationLineList/ByCompany responded code: 204 in 0.1158 ms
2021-12-08 11:35:04.927 +07:00 ReqID:[befa817e-b918-438c-98d2-98785ad55bfd] [INF] HTTP POST /api/v2/CreditAppTable/Factoring/RelatedInfo/VerificationTable/GetVerificationLineList/ByCompany started.
2021-12-08 11:35:05.076 +07:00 ReqID:[13f11b27-eca4-4d69-afb6-87fd133151fa] [INF] HTTP POST /api/v2/CreditAppTable/Factoring/RelatedInfo/VerificationTable/GetCustomerTableByDropDown responded code: 200 in 275.8320 ms
2021-12-08 11:35:05.079 +07:00 ReqID:[e4ea6fd9-5b0d-41a2-ab31-0b0a8056094a] [INF] HTTP POST /api/v2/CreditAppTable/Factoring/RelatedInfo/VerificationTable/GetBuyerTableByCreditAppTableDropDown responded code: 200 in 281.4295 ms
2021-12-08 11:35:05.090 +07:00 ReqID:[0HMDQ0CTGPC0S:00000006] [INF] HTTP OPTIONS /api/v2/CreditAppTable/Factoring/RelatedInfo/VerificationTable/ValidateIsManualNumberSeq/companyId=0a099e6f-9ba8-4a06-9e7e-5cc28123a90e started.
2021-12-08 11:35:05.091 +07:00 ReqID:[0HMDQ0CTGPC0S:00000006] [INF] HTTP OPTIONS /api/v2/CreditAppTable/Factoring/RelatedInfo/VerificationTable/ValidateIsManualNumberSeq/companyId=0a099e6f-9ba8-4a06-9e7e-5cc28123a90e responded code: 204 in 0.0590 ms
2021-12-08 11:35:05.094 +07:00 ReqID:[0b1fae56-9140-4447-9aa7-a5c07f3eb963] [INF] HTTP GET /api/v2/CreditAppTable/Factoring/RelatedInfo/VerificationTable/ValidateIsManualNumberSeq/companyId=0a099e6f-9ba8-4a06-9e7e-5cc28123a90e started.
2021-12-08 11:35:05.687 +07:00 ReqID:[0b1fae56-9140-4447-9aa7-a5c07f3eb963] [INF] HTTP GET /api/v2/CreditAppTable/Factoring/RelatedInfo/VerificationTable/ValidateIsManualNumberSeq/companyId=0a099e6f-9ba8-4a06-9e7e-5cc28123a90e responded code: 200 in 591.2881 ms
2021-12-08 11:35:05.729 +07:00 ReqID:[befa817e-b918-438c-98d2-98785ad55bfd] [INF] HTTP POST /api/v2/CreditAppTable/Factoring/RelatedInfo/VerificationTable/GetVerificationLineList/ByCompany responded code: 200 in 800.6450 ms
2021-12-08 11:35:10.622 +07:00 ReqID:[0HMDQ0CTGPC0R:00000007] [INF] HTTP OPTIONS /api/v2/CreditAppTable/Factoring/RelatedInfo/VerificationTable/GetVerificationLineById/id=407b10a8-0267-434c-942e-ce9271f54aad started.
2021-12-08 11:35:10.624 +07:00 ReqID:[0HMDQ0CTGPC0R:00000007] [INF] HTTP OPTIONS /api/v2/CreditAppTable/Factoring/RelatedInfo/VerificationTable/GetVerificationLineById/id=407b10a8-0267-434c-942e-ce9271f54aad responded code: 204 in 0.0830 ms
2021-12-08 11:35:10.626 +07:00 ReqID:[92617f81-cdaf-4f58-9621-b2b4e29872b0] [INF] HTTP GET /api/v2/CreditAppTable/Factoring/RelatedInfo/VerificationTable/GetVerificationLineById/id=407b10a8-0267-434c-942e-ce9271f54aad started.
2021-12-08 11:35:11.026 +07:00 ReqID:[92617f81-cdaf-4f58-9621-b2b4e29872b0] [INF] HTTP GET /api/v2/CreditAppTable/Factoring/RelatedInfo/VerificationTable/GetVerificationLineById/id=407b10a8-0267-434c-942e-ce9271f54aad responded code: 200 in 397.8069 ms
2021-12-08 11:35:11.034 +07:00 ReqID:[0HMDQ0CTGPC0R:00000009] [INF] HTTP OPTIONS /api/v2/CreditAppTable/Factoring/RelatedInfo/VerificationTable/GetVendorTableDropDown started.
2021-12-08 11:35:11.035 +07:00 ReqID:[0HMDQ0CTGPC0S:00000008] [INF] HTTP OPTIONS /api/v2/CreditAppTable/Factoring/RelatedInfo/VerificationTable/GetVerificationTypeDropDown started.
2021-12-08 11:35:11.037 +07:00 ReqID:[0HMDQ0CTGPC0R:00000009] [INF] HTTP OPTIONS /api/v2/CreditAppTable/Factoring/RelatedInfo/VerificationTable/GetVendorTableDropDown responded code: 204 in 0.0838 ms
2021-12-08 11:35:11.038 +07:00 ReqID:[0HMDQ0CTGPC0S:00000008] [INF] HTTP OPTIONS /api/v2/CreditAppTable/Factoring/RelatedInfo/VerificationTable/GetVerificationTypeDropDown responded code: 204 in 0.0589 ms
2021-12-08 11:35:11.040 +07:00 ReqID:[ae7af828-6fc9-4225-bd3e-eddd1308bcc6] [INF] HTTP POST /api/v2/CreditAppTable/Factoring/RelatedInfo/VerificationTable/GetVendorTableDropDown started.
2021-12-08 11:35:11.042 +07:00 ReqID:[adf8642e-1bcf-4962-a310-829ff14a7b8c] [INF] HTTP POST /api/v2/CreditAppTable/Factoring/RelatedInfo/VerificationTable/GetVerificationTypeDropDown started.
2021-12-08 11:35:11.283 +07:00 ReqID:[ae7af828-6fc9-4225-bd3e-eddd1308bcc6] [INF] HTTP POST /api/v2/CreditAppTable/Factoring/RelatedInfo/VerificationTable/GetVendorTableDropDown responded code: 200 in 240.6119 ms
2021-12-08 11:35:11.310 +07:00 ReqID:[adf8642e-1bcf-4962-a310-829ff14a7b8c] [INF] HTTP POST /api/v2/CreditAppTable/Factoring/RelatedInfo/VerificationTable/GetVerificationTypeDropDown responded code: 200 in 266.9044 ms
2021-12-08 11:35:18.483 +07:00 ReqID:[0HMDQ0CTGPC0S:0000000A] [INF] HTTP OPTIONS /api/v2/CreditAppTable/Factoring/RelatedInfo/VerificationTable/GetVerificationTableById/id=1fdcad95-11ce-4791-84e1-0d4c8061799e started.
2021-12-08 11:35:18.484 +07:00 ReqID:[0HMDQ0CTGPC0S:0000000A] [INF] HTTP OPTIONS /api/v2/CreditAppTable/Factoring/RelatedInfo/VerificationTable/GetVerificationTableById/id=1fdcad95-11ce-4791-84e1-0d4c8061799e responded code: 204 in 0.0783 ms
2021-12-08 11:35:18.487 +07:00 ReqID:[3b639701-5cf6-41ae-9676-dae3c13f6c69] [INF] HTTP GET /api/v2/CreditAppTable/Factoring/RelatedInfo/VerificationTable/GetVerificationTableById/id=1fdcad95-11ce-4791-84e1-0d4c8061799e started.
2021-12-08 11:35:18.532 +07:00 ReqID:[0HMDQ0CTGPC0R:0000000B] [INF] HTTP OPTIONS /api/v2/CreditAppTable/Factoring/RelatedInfo/VerificationTable/GetAccessModeByParentVerificationLine/id=1fdcad95-11ce-4791-84e1-0d4c8061799e started.
2021-12-08 11:35:18.535 +07:00 ReqID:[0HMDQ0CTGPC0R:0000000B] [INF] HTTP OPTIONS /api/v2/CreditAppTable/Factoring/RelatedInfo/VerificationTable/GetAccessModeByParentVerificationLine/id=1fdcad95-11ce-4791-84e1-0d4c8061799e responded code: 204 in 0.0811 ms
2021-12-08 11:35:18.537 +07:00 ReqID:[b5e279d6-9f1a-47db-89dd-54a2d005e547] [INF] HTTP GET /api/v2/CreditAppTable/Factoring/RelatedInfo/VerificationTable/GetAccessModeByParentVerificationLine/id=1fdcad95-11ce-4791-84e1-0d4c8061799e started.
2021-12-08 11:35:18.885 +07:00 ReqID:[3b639701-5cf6-41ae-9676-dae3c13f6c69] [INF] HTTP GET /api/v2/CreditAppTable/Factoring/RelatedInfo/VerificationTable/GetVerificationTableById/id=1fdcad95-11ce-4791-84e1-0d4c8061799e responded code: 200 in 396.8095 ms
2021-12-08 11:35:18.889 +07:00 ReqID:[0HMDQ0CTGPC0S:0000000C] [INF] HTTP OPTIONS /api/v2/CreditAppTable/Factoring/RelatedInfo/VerificationTable/GetBuyerTableByCreditAppTableDropDown started.
2021-12-08 11:35:18.891 +07:00 ReqID:[0HMDQ0CTGPC0T:00000006] [INF] HTTP OPTIONS /api/v2/CreditAppTable/Factoring/RelatedInfo/VerificationTable/GetCustomerTableByDropDown started.
2021-12-08 11:35:18.891 +07:00 ReqID:[0HMDQ0CTGPC0S:0000000C] [INF] HTTP OPTIONS /api/v2/CreditAppTable/Factoring/RelatedInfo/VerificationTable/GetBuyerTableByCreditAppTableDropDown responded code: 204 in 0.0707 ms
2021-12-08 11:35:18.892 +07:00 ReqID:[0HMDQ0CTGPC0T:00000006] [INF] HTTP OPTIONS /api/v2/CreditAppTable/Factoring/RelatedInfo/VerificationTable/GetCustomerTableByDropDown responded code: 204 in 0.0506 ms
2021-12-08 11:35:18.894 +07:00 ReqID:[074c9e5a-8220-40ea-9603-9c20633b2b49] [INF] HTTP POST /api/v2/CreditAppTable/Factoring/RelatedInfo/VerificationTable/GetBuyerTableByCreditAppTableDropDown started.
2021-12-08 11:35:18.896 +07:00 ReqID:[376af601-0f45-4d93-aea0-76bc6a140b18] [INF] HTTP POST /api/v2/CreditAppTable/Factoring/RelatedInfo/VerificationTable/GetCustomerTableByDropDown started.
2021-12-08 11:35:18.950 +07:00 ReqID:[b5e279d6-9f1a-47db-89dd-54a2d005e547] [INF] HTTP GET /api/v2/CreditAppTable/Factoring/RelatedInfo/VerificationTable/GetAccessModeByParentVerificationLine/id=1fdcad95-11ce-4791-84e1-0d4c8061799e responded code: 200 in 411.4217 ms
2021-12-08 11:35:19.133 +07:00 ReqID:[0HMDQ0CTGPC0R:0000000D] [INF] HTTP OPTIONS /api/v2/CreditAppTable/Factoring/RelatedInfo/VerificationTable/GetVerificationLineList/ByCompany started.
2021-12-08 11:35:19.134 +07:00 ReqID:[0HMDQ0CTGPC0R:0000000D] [INF] HTTP OPTIONS /api/v2/CreditAppTable/Factoring/RelatedInfo/VerificationTable/GetVerificationLineList/ByCompany responded code: 204 in 0.0698 ms
2021-12-08 11:35:19.136 +07:00 ReqID:[074c9e5a-8220-40ea-9603-9c20633b2b49] [INF] HTTP POST /api/v2/CreditAppTable/Factoring/RelatedInfo/VerificationTable/GetBuyerTableByCreditAppTableDropDown responded code: 200 in 238.8041 ms
2021-12-08 11:35:19.137 +07:00 ReqID:[586561d6-0913-4096-8843-e3f5a28e46bf] [INF] HTTP POST /api/v2/CreditAppTable/Factoring/RelatedInfo/VerificationTable/GetVerificationLineList/ByCompany started.
2021-12-08 11:35:19.166 +07:00 ReqID:[376af601-0f45-4d93-aea0-76bc6a140b18] [INF] HTTP POST /api/v2/CreditAppTable/Factoring/RelatedInfo/VerificationTable/GetCustomerTableByDropDown responded code: 200 in 264.8059 ms
2021-12-08 11:35:19.171 +07:00 ReqID:[0HMDQ0CTGPC0T:00000008] [INF] HTTP OPTIONS /api/v2/CreditAppTable/Factoring/RelatedInfo/VerificationTable/ValidateIsManualNumberSeq/companyId=0a099e6f-9ba8-4a06-9e7e-5cc28123a90e started.
2021-12-08 11:35:19.172 +07:00 ReqID:[0HMDQ0CTGPC0T:00000008] [INF] HTTP OPTIONS /api/v2/CreditAppTable/Factoring/RelatedInfo/VerificationTable/ValidateIsManualNumberSeq/companyId=0a099e6f-9ba8-4a06-9e7e-5cc28123a90e responded code: 204 in 0.1048 ms
2021-12-08 11:35:19.175 +07:00 ReqID:[39d6f4a3-82fb-47ec-b488-ff483dc4f879] [INF] HTTP GET /api/v2/CreditAppTable/Factoring/RelatedInfo/VerificationTable/ValidateIsManualNumberSeq/companyId=0a099e6f-9ba8-4a06-9e7e-5cc28123a90e started.
2021-12-08 11:35:19.879 +07:00 ReqID:[39d6f4a3-82fb-47ec-b488-ff483dc4f879] [INF] HTTP GET /api/v2/CreditAppTable/Factoring/RelatedInfo/VerificationTable/ValidateIsManualNumberSeq/companyId=0a099e6f-9ba8-4a06-9e7e-5cc28123a90e responded code: 200 in 703.0277 ms
2021-12-08 11:35:19.894 +07:00 ReqID:[586561d6-0913-4096-8843-e3f5a28e46bf] [INF] HTTP POST /api/v2/CreditAppTable/Factoring/RelatedInfo/VerificationTable/GetVerificationLineList/ByCompany responded code: 200 in 754.1086 ms
2021-12-08 11:35:26.235 +07:00 ReqID:[0HMDQ0CTGPC0R:0000000F] [INF] HTTP OPTIONS /api/v2/CreditAppTable/Factoring/RelatedInfo/VerificationTable/GetVerificationTableList/ByCompany started.
2021-12-08 11:35:26.237 +07:00 ReqID:[0HMDQ0CTGPC0R:0000000F] [INF] HTTP OPTIONS /api/v2/CreditAppTable/Factoring/RelatedInfo/VerificationTable/GetVerificationTableList/ByCompany responded code: 204 in 0.0763 ms
2021-12-08 11:35:26.243 +07:00 ReqID:[6daa954a-1e9d-4678-9b13-4c465b83d6ea] [INF] HTTP POST /api/v2/CreditAppTable/Factoring/RelatedInfo/VerificationTable/GetVerificationTableList/ByCompany started.
2021-12-08 11:35:26.783 +07:00 ReqID:[6daa954a-1e9d-4678-9b13-4c465b83d6ea] [INF] HTTP POST /api/v2/CreditAppTable/Factoring/RelatedInfo/VerificationTable/GetVerificationTableList/ByCompany responded code: 200 in 538.7393 ms
2021-12-08 11:35:27.531 +07:00 ReqID:[0HMDQ0CTGPC0R:00000011] [INF] HTTP OPTIONS /api/v2/CreditAppTable/Factoring/RelatedInfo/VerificationTable/GetBuyerTableByCreditAppTableDropDown started.
2021-12-08 11:35:27.534 +07:00 ReqID:[0HMDQ0CTGPC0R:00000011] [INF] HTTP OPTIONS /api/v2/CreditAppTable/Factoring/RelatedInfo/VerificationTable/GetBuyerTableByCreditAppTableDropDown responded code: 204 in 0.0746 ms
2021-12-08 11:35:27.535 +07:00 ReqID:[0HMDQ0CTGPC0T:0000000A] [INF] HTTP OPTIONS /api/v2/CreditAppTable/Factoring/RelatedInfo/VerificationTable/GetCustomerTableByDropDown started.
2021-12-08 11:35:27.536 +07:00 ReqID:[56eafb76-451b-4de2-abe4-8516ed52df4f] [INF] HTTP POST /api/v2/CreditAppTable/Factoring/RelatedInfo/VerificationTable/GetBuyerTableByCreditAppTableDropDown started.
2021-12-08 11:35:27.537 +07:00 ReqID:[0HMDQ0CTGPC0T:0000000A] [INF] HTTP OPTIONS /api/v2/CreditAppTable/Factoring/RelatedInfo/VerificationTable/GetCustomerTableByDropDown responded code: 204 in 0.0569 ms
2021-12-08 11:35:27.542 +07:00 ReqID:[1f8229a7-603e-4841-893b-e85a2f9ec366] [INF] HTTP POST /api/v2/CreditAppTable/Factoring/RelatedInfo/VerificationTable/GetCustomerTableByDropDown started.
2021-12-08 11:35:27.543 +07:00 ReqID:[0HMDQ0CTGPC0S:0000000E] [INF] HTTP OPTIONS /api/v2/CreditAppTable/Factoring/RelatedInfo/VerificationTable/GetDocumentStatusDropDown started.
2021-12-08 11:35:27.545 +07:00 ReqID:[0HMDQ0CTGPC0S:0000000E] [INF] HTTP OPTIONS /api/v2/CreditAppTable/Factoring/RelatedInfo/VerificationTable/GetDocumentStatusDropDown responded code: 204 in 0.1134 ms
2021-12-08 11:35:27.549 +07:00 ReqID:[68ae3048-3e0f-47b7-a00d-5114c2d39383] [INF] HTTP POST /api/v2/CreditAppTable/Factoring/RelatedInfo/VerificationTable/GetDocumentStatusDropDown started.
2021-12-08 11:35:27.766 +07:00 ReqID:[56eafb76-451b-4de2-abe4-8516ed52df4f] [INF] HTTP POST /api/v2/CreditAppTable/Factoring/RelatedInfo/VerificationTable/GetBuyerTableByCreditAppTableDropDown responded code: 200 in 228.6877 ms
2021-12-08 11:35:27.795 +07:00 ReqID:[1f8229a7-603e-4841-893b-e85a2f9ec366] [INF] HTTP POST /api/v2/CreditAppTable/Factoring/RelatedInfo/VerificationTable/GetCustomerTableByDropDown responded code: 200 in 251.9397 ms
2021-12-08 11:35:27.806 +07:00 ReqID:[68ae3048-3e0f-47b7-a00d-5114c2d39383] [INF] HTTP POST /api/v2/CreditAppTable/Factoring/RelatedInfo/VerificationTable/GetDocumentStatusDropDown responded code: 200 in 255.6941 ms
2021-12-08 11:36:08.189 +07:00 ReqID:[0HMDQ0CTGPC0S:00000010] [INF] HTTP OPTIONS /api/v2/CreditAppTable/Factoring/RelatedInfo/VerificationTable/GetVerificationTableList/ByCompany started.
2021-12-08 11:36:08.191 +07:00 ReqID:[0HMDQ0CTGPC0S:00000010] [INF] HTTP OPTIONS /api/v2/CreditAppTable/Factoring/RelatedInfo/VerificationTable/GetVerificationTableList/ByCompany responded code: 204 in 0.4993 ms
2021-12-08 11:36:08.199 +07:00 ReqID:[b212aa6b-e3ae-4416-94c7-c88c414a3f78] [INF] HTTP POST /api/v2/CreditAppTable/Factoring/RelatedInfo/VerificationTable/GetVerificationTableList/ByCompany started.
2021-12-08 11:36:08.661 +07:00 ReqID:[b212aa6b-e3ae-4416-94c7-c88c414a3f78] [INF] HTTP POST /api/v2/CreditAppTable/Factoring/RelatedInfo/VerificationTable/GetVerificationTableList/ByCompany responded code: 200 in 460.7331 ms
2021-12-08 11:36:09.508 +07:00 ReqID:[0HMDQ0CTGPC0S:00000012] [INF] HTTP OPTIONS /api/v2/CreditAppTable/Factoring/RelatedInfo/VerificationTable/GetBuyerTableByCreditAppTableDropDown started.
2021-12-08 11:36:09.510 +07:00 ReqID:[0HMDQ0CTGPC0S:00000012] [INF] HTTP OPTIONS /api/v2/CreditAppTable/Factoring/RelatedInfo/VerificationTable/GetBuyerTableByCreditAppTableDropDown responded code: 204 in 0.0749 ms
2021-12-08 11:36:09.513 +07:00 ReqID:[0HMDQ0CTGPC0S:00000013] [INF] HTTP OPTIONS /api/v2/CreditAppTable/Factoring/RelatedInfo/VerificationTable/GetCustomerTableByDropDown started.
2021-12-08 11:36:09.513 +07:00 ReqID:[261ff2f5-1872-4438-91d1-573a73c55300] [INF] HTTP POST /api/v2/CreditAppTable/Factoring/RelatedInfo/VerificationTable/GetBuyerTableByCreditAppTableDropDown started.
2021-12-08 11:36:09.515 +07:00 ReqID:[0HMDQ0CTGPC0S:00000013] [INF] HTTP OPTIONS /api/v2/CreditAppTable/Factoring/RelatedInfo/VerificationTable/GetCustomerTableByDropDown responded code: 204 in 0.0722 ms
2021-12-08 11:36:09.517 +07:00 ReqID:[0HMDQ0CTGPC0R:00000013] [INF] HTTP OPTIONS /api/v2/CreditAppTable/Factoring/RelatedInfo/VerificationTable/GetDocumentStatusDropDown started.
2021-12-08 11:36:09.518 +07:00 ReqID:[44dc17d0-ce4b-4780-a31d-d14f22289156] [INF] HTTP POST /api/v2/CreditAppTable/Factoring/RelatedInfo/VerificationTable/GetCustomerTableByDropDown started.
2021-12-08 11:36:09.519 +07:00 ReqID:[0HMDQ0CTGPC0R:00000013] [INF] HTTP OPTIONS /api/v2/CreditAppTable/Factoring/RelatedInfo/VerificationTable/GetDocumentStatusDropDown responded code: 204 in 0.0536 ms
2021-12-08 11:36:09.523 +07:00 ReqID:[d0c99427-a3f8-4289-b29f-a94bd9f294fa] [INF] HTTP POST /api/v2/CreditAppTable/Factoring/RelatedInfo/VerificationTable/GetDocumentStatusDropDown started.
2021-12-08 11:36:09.741 +07:00 ReqID:[261ff2f5-1872-4438-91d1-573a73c55300] [INF] HTTP POST /api/v2/CreditAppTable/Factoring/RelatedInfo/VerificationTable/GetBuyerTableByCreditAppTableDropDown responded code: 200 in 225.5686 ms
2021-12-08 11:36:09.771 +07:00 ReqID:[44dc17d0-ce4b-4780-a31d-d14f22289156] [INF] HTTP POST /api/v2/CreditAppTable/Factoring/RelatedInfo/VerificationTable/GetCustomerTableByDropDown responded code: 200 in 251.5198 ms
2021-12-08 11:36:09.779 +07:00 ReqID:[d0c99427-a3f8-4289-b29f-a94bd9f294fa] [INF] HTTP POST /api/v2/CreditAppTable/Factoring/RelatedInfo/VerificationTable/GetDocumentStatusDropDown responded code: 200 in 251.0413 ms
2021-12-08 11:36:15.403 +07:00 ReqID:[0HMDQ0CTGPC0R:00000015] [INF] HTTP OPTIONS /api/v2/CreditAppTable/Factoring/RelatedInfo/VerificationTable/GetVerificationTableById/id=1fdcad95-11ce-4791-84e1-0d4c8061799e started.
2021-12-08 11:36:15.405 +07:00 ReqID:[0HMDQ0CTGPC0R:00000015] [INF] HTTP OPTIONS /api/v2/CreditAppTable/Factoring/RelatedInfo/VerificationTable/GetVerificationTableById/id=1fdcad95-11ce-4791-84e1-0d4c8061799e responded code: 204 in 0.0565 ms
2021-12-08 11:36:15.408 +07:00 ReqID:[9e372247-7ee9-4960-a4db-fbe4df53a8a5] [INF] HTTP GET /api/v2/CreditAppTable/Factoring/RelatedInfo/VerificationTable/GetVerificationTableById/id=1fdcad95-11ce-4791-84e1-0d4c8061799e started.
2021-12-08 11:36:15.432 +07:00 ReqID:[0HMDQ0CTGPC0S:00000015] [INF] HTTP OPTIONS /api/v2/CreditAppTable/Factoring/RelatedInfo/VerificationTable/GetAccessModeByParentVerificationLine/id=1fdcad95-11ce-4791-84e1-0d4c8061799e started.
2021-12-08 11:36:15.433 +07:00 ReqID:[0HMDQ0CTGPC0S:00000015] [INF] HTTP OPTIONS /api/v2/CreditAppTable/Factoring/RelatedInfo/VerificationTable/GetAccessModeByParentVerificationLine/id=1fdcad95-11ce-4791-84e1-0d4c8061799e responded code: 204 in 0.0565 ms
2021-12-08 11:36:15.436 +07:00 ReqID:[9a498989-8501-48f4-9c16-897050bbd0e7] [INF] HTTP GET /api/v2/CreditAppTable/Factoring/RelatedInfo/VerificationTable/GetAccessModeByParentVerificationLine/id=1fdcad95-11ce-4791-84e1-0d4c8061799e started.
2021-12-08 11:36:15.788 +07:00 ReqID:[9e372247-7ee9-4960-a4db-fbe4df53a8a5] [INF] HTTP GET /api/v2/CreditAppTable/Factoring/RelatedInfo/VerificationTable/GetVerificationTableById/id=1fdcad95-11ce-4791-84e1-0d4c8061799e responded code: 200 in 379.0442 ms
2021-12-08 11:36:15.802 +07:00 ReqID:[0HMDQ0CTGPC0R:00000017] [INF] HTTP OPTIONS /api/v2/CreditAppTable/Factoring/RelatedInfo/VerificationTable/GetBuyerTableByCreditAppTableDropDown started.
2021-12-08 11:36:15.803 +07:00 ReqID:[0HMDQ0CTGPC0R:00000017] [INF] HTTP OPTIONS /api/v2/CreditAppTable/Factoring/RelatedInfo/VerificationTable/GetBuyerTableByCreditAppTableDropDown responded code: 204 in 0.1396 ms
2021-12-08 11:36:15.803 +07:00 ReqID:[0HMDQ0CTGPC0T:0000000D] [INF] HTTP OPTIONS /api/v2/CreditAppTable/Factoring/RelatedInfo/VerificationTable/GetCustomerTableByDropDown started.
2021-12-08 11:36:15.807 +07:00 ReqID:[485ca683-2043-4e03-817e-63a0674032e0] [INF] HTTP POST /api/v2/CreditAppTable/Factoring/RelatedInfo/VerificationTable/GetBuyerTableByCreditAppTableDropDown started.
2021-12-08 11:36:15.808 +07:00 ReqID:[0HMDQ0CTGPC0T:0000000D] [INF] HTTP OPTIONS /api/v2/CreditAppTable/Factoring/RelatedInfo/VerificationTable/GetCustomerTableByDropDown responded code: 204 in 0.3131 ms
2021-12-08 11:36:15.812 +07:00 ReqID:[15c7f5dc-78be-4d06-b88c-943922b099c8] [INF] HTTP POST /api/v2/CreditAppTable/Factoring/RelatedInfo/VerificationTable/GetCustomerTableByDropDown started.
2021-12-08 11:36:15.821 +07:00 ReqID:[9a498989-8501-48f4-9c16-897050bbd0e7] [INF] HTTP GET /api/v2/CreditAppTable/Factoring/RelatedInfo/VerificationTable/GetAccessModeByParentVerificationLine/id=1fdcad95-11ce-4791-84e1-0d4c8061799e responded code: 200 in 384.1238 ms
2021-12-08 11:36:16.031 +07:00 ReqID:[0HMDQ0CTGPC0S:00000017] [INF] HTTP OPTIONS /api/v2/CreditAppTable/Factoring/RelatedInfo/VerificationTable/GetVerificationLineList/ByCompany started.
2021-12-08 11:36:16.033 +07:00 ReqID:[0HMDQ0CTGPC0S:00000017] [INF] HTTP OPTIONS /api/v2/CreditAppTable/Factoring/RelatedInfo/VerificationTable/GetVerificationLineList/ByCompany responded code: 204 in 0.0766 ms
2021-12-08 11:36:16.035 +07:00 ReqID:[f2f6d7d8-ecf7-4984-896c-95663f4a3b0f] [INF] HTTP POST /api/v2/CreditAppTable/Factoring/RelatedInfo/VerificationTable/GetVerificationLineList/ByCompany started.
2021-12-08 11:36:16.043 +07:00 ReqID:[15c7f5dc-78be-4d06-b88c-943922b099c8] [INF] HTTP POST /api/v2/CreditAppTable/Factoring/RelatedInfo/VerificationTable/GetCustomerTableByDropDown responded code: 200 in 228.6387 ms
2021-12-08 11:36:16.060 +07:00 ReqID:[485ca683-2043-4e03-817e-63a0674032e0] [INF] HTTP POST /api/v2/CreditAppTable/Factoring/RelatedInfo/VerificationTable/GetBuyerTableByCreditAppTableDropDown responded code: 200 in 251.0613 ms
2021-12-08 11:36:16.065 +07:00 ReqID:[0HMDQ0CTGPC0R:00000019] [INF] HTTP OPTIONS /api/v2/CreditAppTable/Factoring/RelatedInfo/VerificationTable/ValidateIsManualNumberSeq/companyId=0a099e6f-9ba8-4a06-9e7e-5cc28123a90e started.
2021-12-08 11:36:16.067 +07:00 ReqID:[0HMDQ0CTGPC0R:00000019] [INF] HTTP OPTIONS /api/v2/CreditAppTable/Factoring/RelatedInfo/VerificationTable/ValidateIsManualNumberSeq/companyId=0a099e6f-9ba8-4a06-9e7e-5cc28123a90e responded code: 204 in 0.0729 ms
2021-12-08 11:36:16.070 +07:00 ReqID:[9bc1a1c3-9bb1-4d59-bd01-7d1aa757c0ad] [INF] HTTP GET /api/v2/CreditAppTable/Factoring/RelatedInfo/VerificationTable/ValidateIsManualNumberSeq/companyId=0a099e6f-9ba8-4a06-9e7e-5cc28123a90e started.
2021-12-08 11:36:16.720 +07:00 ReqID:[9bc1a1c3-9bb1-4d59-bd01-7d1aa757c0ad] [INF] HTTP GET /api/v2/CreditAppTable/Factoring/RelatedInfo/VerificationTable/ValidateIsManualNumberSeq/companyId=0a099e6f-9ba8-4a06-9e7e-5cc28123a90e responded code: 200 in 649.2159 ms
2021-12-08 11:36:16.817 +07:00 ReqID:[f2f6d7d8-ecf7-4984-896c-95663f4a3b0f] [INF] HTTP POST /api/v2/CreditAppTable/Factoring/RelatedInfo/VerificationTable/GetVerificationLineList/ByCompany responded code: 200 in 780.4201 ms
2021-12-08 11:36:19.848 +07:00 ReqID:[0HMDQ0CTGPC0S:00000019] [INF] HTTP OPTIONS /api/v2/CreditAppTable/Factoring/RelatedInfo/VerificationTable/GetVerificationLineById/id=407b10a8-0267-434c-942e-ce9271f54aad started.
2021-12-08 11:36:19.849 +07:00 ReqID:[0HMDQ0CTGPC0S:00000019] [INF] HTTP OPTIONS /api/v2/CreditAppTable/Factoring/RelatedInfo/VerificationTable/GetVerificationLineById/id=407b10a8-0267-434c-942e-ce9271f54aad responded code: 204 in 0.0699 ms
2021-12-08 11:36:19.852 +07:00 ReqID:[a83a1cb2-efaa-4991-9c60-4a564354fdb1] [INF] HTTP GET /api/v2/CreditAppTable/Factoring/RelatedInfo/VerificationTable/GetVerificationLineById/id=407b10a8-0267-434c-942e-ce9271f54aad started.
2021-12-08 11:36:20.203 +07:00 ReqID:[a83a1cb2-efaa-4991-9c60-4a564354fdb1] [INF] HTTP GET /api/v2/CreditAppTable/Factoring/RelatedInfo/VerificationTable/GetVerificationLineById/id=407b10a8-0267-434c-942e-ce9271f54aad responded code: 200 in 349.4578 ms
2021-12-08 11:36:20.208 +07:00 ReqID:[0HMDQ0CTGPC0S:0000001B] [INF] HTTP OPTIONS /api/v2/CreditAppTable/Factoring/RelatedInfo/VerificationTable/GetVendorTableDropDown started.
2021-12-08 11:36:20.209 +07:00 ReqID:[0HMDQ0CTGPC0S:0000001B] [INF] HTTP OPTIONS /api/v2/CreditAppTable/Factoring/RelatedInfo/VerificationTable/GetVendorTableDropDown responded code: 204 in 0.0805 ms
2021-12-08 11:36:20.209 +07:00 ReqID:[0HMDQ0CTGPC0R:0000001B] [INF] HTTP OPTIONS /api/v2/CreditAppTable/Factoring/RelatedInfo/VerificationTable/GetVerificationTypeDropDown started.
2021-12-08 11:36:20.211 +07:00 ReqID:[a944551e-543a-4c42-8264-d3d88348158d] [INF] HTTP POST /api/v2/CreditAppTable/Factoring/RelatedInfo/VerificationTable/GetVendorTableDropDown started.
2021-12-08 11:36:20.212 +07:00 ReqID:[0HMDQ0CTGPC0R:0000001B] [INF] HTTP OPTIONS /api/v2/CreditAppTable/Factoring/RelatedInfo/VerificationTable/GetVerificationTypeDropDown responded code: 204 in 0.0748 ms
2021-12-08 11:36:20.216 +07:00 ReqID:[20e03006-9b54-469b-8479-8f8f1031a53f] [INF] HTTP POST /api/v2/CreditAppTable/Factoring/RelatedInfo/VerificationTable/GetVerificationTypeDropDown started.
2021-12-08 11:36:20.466 +07:00 ReqID:[20e03006-9b54-469b-8479-8f8f1031a53f] [INF] HTTP POST /api/v2/CreditAppTable/Factoring/RelatedInfo/VerificationTable/GetVerificationTypeDropDown responded code: 200 in 249.3519 ms
2021-12-08 11:36:20.466 +07:00 ReqID:[a944551e-543a-4c42-8264-d3d88348158d] [INF] HTTP POST /api/v2/CreditAppTable/Factoring/RelatedInfo/VerificationTable/GetVendorTableDropDown responded code: 200 in 252.9456 ms
2021-12-08 11:58:47.644 +07:00 ReqID:[0HMDQ0CTGPC0U:00000001] [INF] HTTP OPTIONS /api/v2/CreditAppTable/Factoring/RelatedInfo/VerificationTable/GetVerificationTableById/id=1fdcad95-11ce-4791-84e1-0d4c8061799e started.
2021-12-08 11:58:47.646 +07:00 ReqID:[0HMDQ0CTGPC0U:00000001] [INF] HTTP OPTIONS /api/v2/CreditAppTable/Factoring/RelatedInfo/VerificationTable/GetVerificationTableById/id=1fdcad95-11ce-4791-84e1-0d4c8061799e responded code: 204 in 0.1558 ms
2021-12-08 11:58:47.659 +07:00 ReqID:[27216764-03fb-4065-af03-8096a8f7fb4e] [INF] HTTP GET /api/v2/CreditAppTable/Factoring/RelatedInfo/VerificationTable/GetVerificationTableById/id=1fdcad95-11ce-4791-84e1-0d4c8061799e started.
2021-12-08 11:58:47.679 +07:00 ReqID:[0HMDQ0CTGPC0V:00000001] [INF] HTTP OPTIONS /api/v2/CreditAppTable/Factoring/RelatedInfo/VerificationTable/GetAccessModeByParentVerificationLine/id=1fdcad95-11ce-4791-84e1-0d4c8061799e started.
2021-12-08 11:58:47.685 +07:00 ReqID:[0HMDQ0CTGPC0V:00000001] [INF] HTTP OPTIONS /api/v2/CreditAppTable/Factoring/RelatedInfo/VerificationTable/GetAccessModeByParentVerificationLine/id=1fdcad95-11ce-4791-84e1-0d4c8061799e responded code: 204 in 0.1365 ms
2021-12-08 11:58:47.694 +07:00 ReqID:[62751290-40d8-49b5-a7dd-79b7a094ac4c] [INF] HTTP GET /api/v2/CreditAppTable/Factoring/RelatedInfo/VerificationTable/GetAccessModeByParentVerificationLine/id=1fdcad95-11ce-4791-84e1-0d4c8061799e started.
2021-12-08 11:58:48.257 +07:00 ReqID:[27216764-03fb-4065-af03-8096a8f7fb4e] [INF] HTTP GET /api/v2/CreditAppTable/Factoring/RelatedInfo/VerificationTable/GetVerificationTableById/id=1fdcad95-11ce-4791-84e1-0d4c8061799e responded code: 200 in 597.6590 ms
2021-12-08 11:58:48.262 +07:00 ReqID:[0HMDQ0CTGPC0U:00000003] [INF] HTTP OPTIONS /api/v2/CreditAppTable/Factoring/RelatedInfo/VerificationTable/GetBuyerTableByCreditAppTableDropDown started.
2021-12-08 11:58:48.264 +07:00 ReqID:[0HMDQ0CTGPC0U:00000003] [INF] HTTP OPTIONS /api/v2/CreditAppTable/Factoring/RelatedInfo/VerificationTable/GetBuyerTableByCreditAppTableDropDown responded code: 204 in 0.1295 ms
2021-12-08 11:58:48.265 +07:00 ReqID:[0HMDQ0CTGPC10:00000001] [INF] HTTP OPTIONS /api/v2/CreditAppTable/Factoring/RelatedInfo/VerificationTable/GetCustomerTableByDropDown started.
2021-12-08 11:58:48.273 +07:00 ReqID:[0HMDQ0CTGPC10:00000001] [INF] HTTP OPTIONS /api/v2/CreditAppTable/Factoring/RelatedInfo/VerificationTable/GetCustomerTableByDropDown responded code: 204 in 3.3587 ms
2021-12-08 11:58:48.273 +07:00 ReqID:[29ba46e4-9acc-4d95-aab5-fb4dbf7b8814] [INF] HTTP POST /api/v2/CreditAppTable/Factoring/RelatedInfo/VerificationTable/GetBuyerTableByCreditAppTableDropDown started.
2021-12-08 11:58:48.279 +07:00 ReqID:[34dd079e-e476-4c98-b862-021eea57940c] [INF] HTTP POST /api/v2/CreditAppTable/Factoring/RelatedInfo/VerificationTable/GetCustomerTableByDropDown started.
2021-12-08 11:58:48.491 +07:00 ReqID:[62751290-40d8-49b5-a7dd-79b7a094ac4c] [INF] HTTP GET /api/v2/CreditAppTable/Factoring/RelatedInfo/VerificationTable/GetAccessModeByParentVerificationLine/id=1fdcad95-11ce-4791-84e1-0d4c8061799e responded code: 200 in 796.2368 ms
2021-12-08 11:58:48.502 +07:00 ReqID:[29ba46e4-9acc-4d95-aab5-fb4dbf7b8814] [INF] HTTP POST /api/v2/CreditAppTable/Factoring/RelatedInfo/VerificationTable/GetBuyerTableByCreditAppTableDropDown responded code: 200 in 222.1247 ms
2021-12-08 11:58:48.669 +07:00 ReqID:[0HMDQ0CTGPC0U:00000005] [INF] HTTP OPTIONS /api/v2/CreditAppTable/Factoring/RelatedInfo/VerificationTable/GetVerificationLineList/ByCompany started.
2021-12-08 11:58:48.670 +07:00 ReqID:[0HMDQ0CTGPC0U:00000005] [INF] HTTP OPTIONS /api/v2/CreditAppTable/Factoring/RelatedInfo/VerificationTable/GetVerificationLineList/ByCompany responded code: 204 in 0.0878 ms
2021-12-08 11:58:48.672 +07:00 ReqID:[f853e7ff-4867-4848-9e19-584333a6219e] [INF] HTTP POST /api/v2/CreditAppTable/Factoring/RelatedInfo/VerificationTable/GetVerificationLineList/ByCompany started.
2021-12-08 11:58:48.756 +07:00 ReqID:[34dd079e-e476-4c98-b862-021eea57940c] [INF] HTTP POST /api/v2/CreditAppTable/Factoring/RelatedInfo/VerificationTable/GetCustomerTableByDropDown responded code: 200 in 472.1683 ms
2021-12-08 11:58:48.760 +07:00 ReqID:[0HMDQ0CTGPC10:00000003] [INF] HTTP OPTIONS /api/v2/CreditAppTable/Factoring/RelatedInfo/VerificationTable/ValidateIsManualNumberSeq/companyId=0a099e6f-9ba8-4a06-9e7e-5cc28123a90e started.
2021-12-08 11:58:48.761 +07:00 ReqID:[0HMDQ0CTGPC10:00000003] [INF] HTTP OPTIONS /api/v2/CreditAppTable/Factoring/RelatedInfo/VerificationTable/ValidateIsManualNumberSeq/companyId=0a099e6f-9ba8-4a06-9e7e-5cc28123a90e responded code: 204 in 0.0995 ms
2021-12-08 11:58:48.764 +07:00 ReqID:[ee7e9eaf-9cc3-494f-920c-4c8b1861b99f] [INF] HTTP GET /api/v2/CreditAppTable/Factoring/RelatedInfo/VerificationTable/ValidateIsManualNumberSeq/companyId=0a099e6f-9ba8-4a06-9e7e-5cc28123a90e started.
2021-12-08 11:58:49.306 +07:00 ReqID:[f853e7ff-4867-4848-9e19-584333a6219e] [INF] HTTP POST /api/v2/CreditAppTable/Factoring/RelatedInfo/VerificationTable/GetVerificationLineList/ByCompany responded code: 200 in 632.1352 ms
2021-12-08 11:58:49.312 +07:00 ReqID:[ee7e9eaf-9cc3-494f-920c-4c8b1861b99f] [INF] HTTP GET /api/v2/CreditAppTable/Factoring/RelatedInfo/VerificationTable/ValidateIsManualNumberSeq/companyId=0a099e6f-9ba8-4a06-9e7e-5cc28123a90e responded code: 200 in 547.0933 ms
2021-12-08 12:31:02.195 +07:00 ReqID:[0HMDQ0CTGPC11:00000001] [INF] HTTP OPTIONS /api/v2/CreditAppTable/Factoring/RelatedInfo/VerificationTable/GetVerificationLineById/id=407b10a8-0267-434c-942e-ce9271f54aad started.
2021-12-08 12:31:02.197 +07:00 ReqID:[0HMDQ0CTGPC11:00000001] [INF] HTTP OPTIONS /api/v2/CreditAppTable/Factoring/RelatedInfo/VerificationTable/GetVerificationLineById/id=407b10a8-0267-434c-942e-ce9271f54aad responded code: 204 in 0.4246 ms
2021-12-08 12:31:02.205 +07:00 ReqID:[4fede037-2485-483e-9a6d-29a88c1e8390] [INF] HTTP GET /api/v2/CreditAppTable/Factoring/RelatedInfo/VerificationTable/GetVerificationLineById/id=407b10a8-0267-434c-942e-ce9271f54aad started.
2021-12-08 12:31:02.843 +07:00 ReqID:[4fede037-2485-483e-9a6d-29a88c1e8390] [INF] HTTP GET /api/v2/CreditAppTable/Factoring/RelatedInfo/VerificationTable/GetVerificationLineById/id=407b10a8-0267-434c-942e-ce9271f54aad responded code: 200 in 636.1857 ms
2021-12-08 12:31:02.848 +07:00 ReqID:[0HMDQ0CTGPC11:00000003] [INF] HTTP OPTIONS /api/v2/CreditAppTable/Factoring/RelatedInfo/VerificationTable/GetVendorTableDropDown started.
2021-12-08 12:31:02.850 +07:00 ReqID:[0HMDQ0CTGPC11:00000003] [INF] HTTP OPTIONS /api/v2/CreditAppTable/Factoring/RelatedInfo/VerificationTable/GetVendorTableDropDown responded code: 204 in 0.1606 ms
2021-12-08 12:31:02.851 +07:00 ReqID:[0HMDQ0CTGPC12:00000001] [INF] HTTP OPTIONS /api/v2/CreditAppTable/Factoring/RelatedInfo/VerificationTable/GetVerificationTypeDropDown started.
2021-12-08 12:31:02.861 +07:00 ReqID:[5f0a9428-9023-4f99-952c-2d75f199f0fa] [INF] HTTP POST /api/v2/CreditAppTable/Factoring/RelatedInfo/VerificationTable/GetVendorTableDropDown started.
2021-12-08 12:31:02.863 +07:00 ReqID:[0HMDQ0CTGPC12:00000001] [INF] HTTP OPTIONS /api/v2/CreditAppTable/Factoring/RelatedInfo/VerificationTable/GetVerificationTypeDropDown responded code: 204 in 0.0827 ms
2021-12-08 12:31:02.871 +07:00 ReqID:[bb82d985-be05-4312-b28e-394003ad07aa] [INF] HTTP POST /api/v2/CreditAppTable/Factoring/RelatedInfo/VerificationTable/GetVerificationTypeDropDown started.
2021-12-08 12:31:03.113 +07:00 ReqID:[5f0a9428-9023-4f99-952c-2d75f199f0fa] [INF] HTTP POST /api/v2/CreditAppTable/Factoring/RelatedInfo/VerificationTable/GetVendorTableDropDown responded code: 200 in 247.5768 ms
2021-12-08 12:31:03.372 +07:00 ReqID:[bb82d985-be05-4312-b28e-394003ad07aa] [INF] HTTP POST /api/v2/CreditAppTable/Factoring/RelatedInfo/VerificationTable/GetVerificationTypeDropDown responded code: 200 in 497.8751 ms
2021-12-08 12:31:07.386 +07:00 ReqID:[0HMDQ0CTGPC12:00000003] [INF] HTTP OPTIONS /api/v2/CreditAppTable/Factoring/RelatedInfo/VerificationTable/GetVerificationTableById/id=1fdcad95-11ce-4791-84e1-0d4c8061799e started.
2021-12-08 12:31:07.387 +07:00 ReqID:[0HMDQ0CTGPC12:00000003] [INF] HTTP OPTIONS /api/v2/CreditAppTable/Factoring/RelatedInfo/VerificationTable/GetVerificationTableById/id=1fdcad95-11ce-4791-84e1-0d4c8061799e responded code: 204 in 0.0783 ms
2021-12-08 12:31:07.390 +07:00 ReqID:[cbc93756-ad02-4cd4-b69d-9b1e1284c55e] [INF] HTTP GET /api/v2/CreditAppTable/Factoring/RelatedInfo/VerificationTable/GetVerificationTableById/id=1fdcad95-11ce-4791-84e1-0d4c8061799e started.
2021-12-08 12:31:07.412 +07:00 ReqID:[0HMDQ0CTGPC11:00000005] [INF] HTTP OPTIONS /api/v2/CreditAppTable/Factoring/RelatedInfo/VerificationTable/GetAccessModeByParentVerificationLine/id=1fdcad95-11ce-4791-84e1-0d4c8061799e started.
2021-12-08 12:31:07.415 +07:00 ReqID:[0HMDQ0CTGPC11:00000005] [INF] HTTP OPTIONS /api/v2/CreditAppTable/Factoring/RelatedInfo/VerificationTable/GetAccessModeByParentVerificationLine/id=1fdcad95-11ce-4791-84e1-0d4c8061799e responded code: 204 in 0.1436 ms
2021-12-08 12:31:07.418 +07:00 ReqID:[d7dd33a1-2f3a-4087-927c-9b5c703c5936] [INF] HTTP GET /api/v2/CreditAppTable/Factoring/RelatedInfo/VerificationTable/GetAccessModeByParentVerificationLine/id=1fdcad95-11ce-4791-84e1-0d4c8061799e started.
2021-12-08 12:31:07.833 +07:00 ReqID:[cbc93756-ad02-4cd4-b69d-9b1e1284c55e] [INF] HTTP GET /api/v2/CreditAppTable/Factoring/RelatedInfo/VerificationTable/GetVerificationTableById/id=1fdcad95-11ce-4791-84e1-0d4c8061799e responded code: 200 in 441.8209 ms
2021-12-08 12:31:07.841 +07:00 ReqID:[0HMDQ0CTGPC12:00000005] [INF] HTTP OPTIONS /api/v2/CreditAppTable/Factoring/RelatedInfo/VerificationTable/GetBuyerTableByCreditAppTableDropDown started.
2021-12-08 12:31:07.842 +07:00 ReqID:[0HMDQ0CTGPC12:00000005] [INF] HTTP OPTIONS /api/v2/CreditAppTable/Factoring/RelatedInfo/VerificationTable/GetBuyerTableByCreditAppTableDropDown responded code: 204 in 0.2124 ms
2021-12-08 12:31:07.843 +07:00 ReqID:[0HMDQ0CTGPC13:00000001] [INF] HTTP OPTIONS /api/v2/CreditAppTable/Factoring/RelatedInfo/VerificationTable/GetCustomerTableByDropDown started.
2021-12-08 12:31:07.845 +07:00 ReqID:[d04d195c-e5cb-4ccd-b981-c951948f3c0e] [INF] HTTP POST /api/v2/CreditAppTable/Factoring/RelatedInfo/VerificationTable/GetBuyerTableByCreditAppTableDropDown started.
2021-12-08 12:31:07.845 +07:00 ReqID:[0HMDQ0CTGPC13:00000001] [INF] HTTP OPTIONS /api/v2/CreditAppTable/Factoring/RelatedInfo/VerificationTable/GetCustomerTableByDropDown responded code: 204 in 0.0561 ms
2021-12-08 12:31:07.857 +07:00 ReqID:[48c6e4e8-b05a-45d0-9b80-6b20b01a9057] [INF] HTTP POST /api/v2/CreditAppTable/Factoring/RelatedInfo/VerificationTable/GetCustomerTableByDropDown started.
2021-12-08 12:31:07.900 +07:00 ReqID:[d7dd33a1-2f3a-4087-927c-9b5c703c5936] [INF] HTTP GET /api/v2/CreditAppTable/Factoring/RelatedInfo/VerificationTable/GetAccessModeByParentVerificationLine/id=1fdcad95-11ce-4791-84e1-0d4c8061799e responded code: 200 in 480.7005 ms
2021-12-08 12:31:08.019 +07:00 ReqID:[0HMDQ0CTGPC11:00000007] [INF] HTTP OPTIONS /api/v2/CreditAppTable/Factoring/RelatedInfo/VerificationTable/GetVerificationLineList/ByCompany started.
2021-12-08 12:31:08.021 +07:00 ReqID:[0HMDQ0CTGPC11:00000007] [INF] HTTP OPTIONS /api/v2/CreditAppTable/Factoring/RelatedInfo/VerificationTable/GetVerificationLineList/ByCompany responded code: 204 in 0.0631 ms
2021-12-08 12:31:08.023 +07:00 ReqID:[b2c2cfd8-a11e-4a96-8858-d2d01423fd02] [INF] HTTP POST /api/v2/CreditAppTable/Factoring/RelatedInfo/VerificationTable/GetVerificationLineList/ByCompany started.
2021-12-08 12:31:08.114 +07:00 ReqID:[d04d195c-e5cb-4ccd-b981-c951948f3c0e] [INF] HTTP POST /api/v2/CreditAppTable/Factoring/RelatedInfo/VerificationTable/GetBuyerTableByCreditAppTableDropDown responded code: 200 in 267.3381 ms
2021-12-08 12:31:08.428 +07:00 ReqID:[48c6e4e8-b05a-45d0-9b80-6b20b01a9057] [INF] HTTP POST /api/v2/CreditAppTable/Factoring/RelatedInfo/VerificationTable/GetCustomerTableByDropDown responded code: 200 in 569.0364 ms
2021-12-08 12:31:08.436 +07:00 ReqID:[0HMDQ0CTGPC13:00000003] [INF] HTTP OPTIONS /api/v2/CreditAppTable/Factoring/RelatedInfo/VerificationTable/ValidateIsManualNumberSeq/companyId=0a099e6f-9ba8-4a06-9e7e-5cc28123a90e started.
2021-12-08 12:31:08.437 +07:00 ReqID:[0HMDQ0CTGPC13:00000003] [INF] HTTP OPTIONS /api/v2/CreditAppTable/Factoring/RelatedInfo/VerificationTable/ValidateIsManualNumberSeq/companyId=0a099e6f-9ba8-4a06-9e7e-5cc28123a90e responded code: 204 in 0.1003 ms
2021-12-08 12:31:08.439 +07:00 ReqID:[c57fc8e8-7051-4437-97af-9b1c230b9fe5] [INF] HTTP GET /api/v2/CreditAppTable/Factoring/RelatedInfo/VerificationTable/ValidateIsManualNumberSeq/companyId=0a099e6f-9ba8-4a06-9e7e-5cc28123a90e started.
2021-12-08 12:31:08.727 +07:00 ReqID:[b2c2cfd8-a11e-4a96-8858-d2d01423fd02] [INF] HTTP POST /api/v2/CreditAppTable/Factoring/RelatedInfo/VerificationTable/GetVerificationLineList/ByCompany responded code: 200 in 703.0849 ms
2021-12-08 12:31:08.979 +07:00 ReqID:[c57fc8e8-7051-4437-97af-9b1c230b9fe5] [INF] HTTP GET /api/v2/CreditAppTable/Factoring/RelatedInfo/VerificationTable/ValidateIsManualNumberSeq/companyId=0a099e6f-9ba8-4a06-9e7e-5cc28123a90e responded code: 200 in 538.9547 ms
2021-12-08 12:31:34.517 +07:00 ReqID:[0HMDQ0CTGPC13:00000005] [INF] HTTP OPTIONS /api/v2/BuyerTable/GetBuyerTableList/ByCompany started.
2021-12-08 12:31:34.518 +07:00 ReqID:[0HMDQ0CTGPC13:00000005] [INF] HTTP OPTIONS /api/v2/BuyerTable/GetBuyerTableList/ByCompany responded code: 204 in 0.1060 ms
2021-12-08 12:31:34.524 +07:00 ReqID:[0c5f099a-275e-44e9-9d2a-58e22c6efa05] [INF] HTTP POST /api/v2/BuyerTable/GetBuyerTableList/ByCompany started.
2021-12-08 12:31:35.188 +07:00 ReqID:[0c5f099a-275e-44e9-9d2a-58e22c6efa05] [INF] HTTP POST /api/v2/BuyerTable/GetBuyerTableList/ByCompany responded code: 200 in 661.5332 ms
2021-12-08 12:36:07.368 +07:00 ReqID:[0HMDQ0CTGPC13:00000007] [INF] HTTP OPTIONS /api/v2/BuyerTable/GetBuyerTableList/ByCompany started.
2021-12-08 12:36:07.372 +07:00 ReqID:[0HMDQ0CTGPC13:00000007] [INF] HTTP OPTIONS /api/v2/BuyerTable/GetBuyerTableList/ByCompany responded code: 204 in 0.0793 ms
2021-12-08 12:36:07.377 +07:00 ReqID:[8695ef23-c455-4961-b384-9bb4c3abc51f] [INF] HTTP POST /api/v2/BuyerTable/GetBuyerTableList/ByCompany started.
2021-12-08 12:36:08.315 +07:00 ReqID:[8695ef23-c455-4961-b384-9bb4c3abc51f] [INF] HTTP POST /api/v2/BuyerTable/GetBuyerTableList/ByCompany responded code: 200 in 936.4234 ms
