2021-11-24 16:20:21.897 +07:00 ReqID:[] [INF] Starting host
2021-11-24 16:20:36.022 +07:00 ReqID:[0HMDF5ELBMVMK:00000001] [INF] HTTP GET /api/values started.
2021-11-24 16:20:41.020 +07:00 ReqID:[0HMDF5ELBMVMK:00000001] [INF] HTTP GET /api/values responded code: 404 in 4934.7643 ms
2021-11-24 16:33:37.811 +07:00 ReqID:[0HMDF5ELBMVML:00000001] [INF] HTTP OPTIONS /api/v2/SysUser/CheckExistingUser started.
2021-11-24 16:33:37.829 +07:00 ReqID:[0HMDF5ELBMVML:00000001] [INF] HTTP OPTIONS /api/v2/SysUser/CheckExistingUser responded code: 204 in 14.8343 ms
2021-11-24 16:33:37.884 +07:00 ReqID:[0HMDF5ELBMVMM:00000001] [INF] HTTP OPTIONS /api/v2/SysAccessRight/UserDefaultBranchCompanyAccessRight/cf4bd127-af9e-4e7b-b583-844ce920e607 started.
2021-11-24 16:33:37.893 +07:00 ReqID:[0HMDF5ELBMVMM:00000001] [INF] HTTP OPTIONS /api/v2/SysAccessRight/UserDefaultBranchCompanyAccessRight/cf4bd127-af9e-4e7b-b583-844ce920e607 responded code: 204 in 1.5302 ms
2021-11-24 16:33:37.927 +07:00 ReqID:[11065862-5526-4818-8ffe-e1e52624ae10] [INF] HTTP POST /api/v2/SysUser/CheckExistingUser started.
2021-11-24 16:33:37.928 +07:00 ReqID:[fd5b0e44-bc18-4040-ac60-107b104b0494] [INF] HTTP GET /api/v2/SysAccessRight/UserDefaultBranchCompanyAccessRight/cf4bd127-af9e-4e7b-b583-844ce920e607 started.
2021-11-24 16:34:00.063 +07:00 ReqID:[11065862-5526-4818-8ffe-e1e52624ae10] [INF] HTTP POST /api/v2/SysUser/CheckExistingUser responded code: 200 in 22133.9437 ms
2021-11-24 16:34:01.841 +07:00 ReqID:[fd5b0e44-bc18-4040-ac60-107b104b0494] [INF] HTTP GET /api/v2/SysAccessRight/UserDefaultBranchCompanyAccessRight/cf4bd127-af9e-4e7b-b583-844ce920e607 responded code: 200 in 23908.5023 ms
2021-11-24 16:34:05.591 +07:00 ReqID:[0HMDF5ELBMVMM:00000003] [INF] HTTP OPTIONS /api/v2/Home/GetTaskList started.
2021-11-24 16:34:05.594 +07:00 ReqID:[0HMDF5ELBMVMM:00000003] [INF] HTTP OPTIONS /api/v2/Home/GetTaskList responded code: 204 in 0.6020 ms
2021-11-24 16:34:05.600 +07:00 ReqID:[6a10e100-4955-4459-aaea-cb084f2defb3] [INF] HTTP POST /api/v2/Home/GetTaskList started.
2021-11-24 16:34:05.639 +07:00 ReqID:[9f41cbc0-d269-40f2-b54c-b8d9e6d2bd4f] [INF] HTTP POST /api/v2/Home/GetTaskList started.
2021-11-24 16:34:07.075 +07:00 ReqID:[6a10e100-4955-4459-aaea-cb084f2defb3] [INF] HTTP POST /api/v2/Home/GetTaskList responded code: 200 in 1471.7302 ms
2021-11-24 16:34:07.075 +07:00 ReqID:[9f41cbc0-d269-40f2-b54c-b8d9e6d2bd4f] [INF] HTTP POST /api/v2/Home/GetTaskList responded code: 200 in 1421.2291 ms
2021-11-24 16:34:17.302 +07:00 ReqID:[0HMDF5ELBMVML:00000004] [INF] HTTP OPTIONS /api/v2/CompanyParameter/GetCompanyParameterByCompanyId/id=0a099e6f-9ba8-4a06-9e7e-5cc28123a90e started.
2021-11-24 16:34:17.307 +07:00 ReqID:[0HMDF5ELBMVML:00000004] [INF] HTTP OPTIONS /api/v2/CompanyParameter/GetCompanyParameterByCompanyId/id=0a099e6f-9ba8-4a06-9e7e-5cc28123a90e responded code: 204 in 2.6411 ms
2021-11-24 16:34:17.313 +07:00 ReqID:[f5dc4ff3-c81e-4b14-8aa9-ed217d905c65] [INF] HTTP GET /api/v2/CompanyParameter/GetCompanyParameterByCompanyId/id=0a099e6f-9ba8-4a06-9e7e-5cc28123a90e started.
2021-11-24 16:34:18.715 +07:00 ReqID:[f5dc4ff3-c81e-4b14-8aa9-ed217d905c65] [INF] HTTP GET /api/v2/CompanyParameter/GetCompanyParameterByCompanyId/id=0a099e6f-9ba8-4a06-9e7e-5cc28123a90e responded code: 200 in 1398.1587 ms
2021-11-24 16:34:18.863 +07:00 ReqID:[0HMDF5ELBMVML:00000006] [INF] HTTP OPTIONS /api/v2/CompanyParameter/GetCurrencyDropDown started.
2021-11-24 16:34:18.865 +07:00 ReqID:[0HMDF5ELBMVMM:00000005] [INF] HTTP OPTIONS /api/v2/CompanyParameter/GetMethodOfPaymentDropDown started.
2021-11-24 16:34:18.866 +07:00 ReqID:[0HMDF5ELBMVML:00000006] [INF] HTTP OPTIONS /api/v2/CompanyParameter/GetCurrencyDropDown responded code: 204 in 0.4776 ms
2021-11-24 16:34:18.868 +07:00 ReqID:[0HMDF5ELBMVMM:00000005] [INF] HTTP OPTIONS /api/v2/CompanyParameter/GetMethodOfPaymentDropDown responded code: 204 in 0.2413 ms
2021-11-24 16:34:18.870 +07:00 ReqID:[0HMDF5ELBMVMN:00000001] [INF] HTTP OPTIONS /api/v2/CompanyParameter/GetTaxTableDropDown started.
2021-11-24 16:34:18.872 +07:00 ReqID:[0HMDF5ELBMVMO:00000001] [INF] HTTP OPTIONS /api/v2/CompanyParameter/GetInvoiceTypeDropDown started.
2021-11-24 16:34:18.874 +07:00 ReqID:[5f8933b1-3860-4ed2-ad1a-8bbd54d6efeb] [INF] HTTP POST /api/v2/CompanyParameter/GetCurrencyDropDown started.
2021-11-24 16:34:18.874 +07:00 ReqID:[0HMDF5ELBMVMN:00000001] [INF] HTTP OPTIONS /api/v2/CompanyParameter/GetTaxTableDropDown responded code: 204 in 0.3114 ms
2021-11-24 16:34:18.874 +07:00 ReqID:[0HMDF5ELBMVMP:00000001] [INF] HTTP OPTIONS /api/v2/CompanyParameter/GetCalendarGroupDropDown started.
2021-11-24 16:34:18.877 +07:00 ReqID:[0HMDF5ELBMVMQ:00000001] [INF] HTTP OPTIONS /api/v2/CompanyParameter/GetInvoiceRevenueTypeDropDown started.
2021-11-24 16:34:18.879 +07:00 ReqID:[0HMDF5ELBMVMO:00000001] [INF] HTTP OPTIONS /api/v2/CompanyParameter/GetInvoiceTypeDropDown responded code: 204 in 0.2651 ms
2021-11-24 16:34:18.885 +07:00 ReqID:[0HMDF5ELBMVMN:00000002] [INF] HTTP OPTIONS /api/v2/CompanyParameter/GetCreditTermDropDown started.
2021-11-24 16:34:18.888 +07:00 ReqID:[0HMDF5ELBMVMQ:00000001] [INF] HTTP OPTIONS /api/v2/CompanyParameter/GetInvoiceRevenueTypeDropDown responded code: 204 in 0.2114 ms
2021-11-24 16:34:18.893 +07:00 ReqID:[0HMDF5ELBMVMO:00000002] [INF] HTTP OPTIONS /api/v2/CompanyParameter/GetEmployeeFilterActiveStatusDropdown started.
2021-11-24 16:34:18.902 +07:00 ReqID:[718a3fe7-c5e6-40b2-a58c-6ba11589f417] [INF] HTTP POST /api/v2/CompanyParameter/GetTaxTableDropDown started.
2021-11-24 16:34:18.906 +07:00 ReqID:[bf9b6060-e1d4-4ec4-ad41-7808c308c619] [INF] HTTP POST /api/v2/CompanyParameter/GetInvoiceTypeDropDown started.
2021-11-24 16:34:18.907 +07:00 ReqID:[0HMDF5ELBMVMN:00000002] [INF] HTTP OPTIONS /api/v2/CompanyParameter/GetCreditTermDropDown responded code: 204 in 0.2029 ms
2021-11-24 16:34:18.914 +07:00 ReqID:[0HMDF5ELBMVMO:00000002] [INF] HTTP OPTIONS /api/v2/CompanyParameter/GetEmployeeFilterActiveStatusDropdown responded code: 204 in 0.4473 ms
2021-11-24 16:34:18.919 +07:00 ReqID:[0HMDF5ELBMVMP:00000001] [INF] HTTP OPTIONS /api/v2/CompanyParameter/GetCalendarGroupDropDown responded code: 204 in 0.1591 ms
2021-11-24 16:34:18.930 +07:00 ReqID:[52f29f07-395f-4c7c-8f6e-59e6f4484615] [INF] HTTP POST /api/v2/CompanyParameter/GetMethodOfPaymentDropDown started.
2021-11-24 16:34:18.935 +07:00 ReqID:[ce23be6b-0270-4679-b9d8-4012ff539dd1] [INF] HTTP POST /api/v2/CompanyParameter/GetInvoiceRevenueTypeDropDown started.
2021-11-24 16:34:18.939 +07:00 ReqID:[0cccd04a-c72e-46ca-bfbc-e85599607d1f] [INF] HTTP POST /api/v2/CompanyParameter/GetCreditTermDropDown started.
2021-11-24 16:34:20.513 +07:00 ReqID:[5f8933b1-3860-4ed2-ad1a-8bbd54d6efeb] [INF] HTTP POST /api/v2/CompanyParameter/GetCurrencyDropDown responded code: 200 in 1626.8616 ms
2021-11-24 16:34:20.516 +07:00 ReqID:[27f4bd35-15f0-432e-b85d-806a5fbfd2a1] [INF] HTTP POST /api/v2/CompanyParameter/GetEmployeeFilterActiveStatusDropdown started.
2021-11-24 16:34:20.623 +07:00 ReqID:[718a3fe7-c5e6-40b2-a58c-6ba11589f417] [INF] HTTP POST /api/v2/CompanyParameter/GetTaxTableDropDown responded code: 200 in 1706.2812 ms
2021-11-24 16:34:20.626 +07:00 ReqID:[1c54cae9-3588-431a-9909-72b56e4243de] [INF] HTTP POST /api/v2/CompanyParameter/GetCalendarGroupDropDown started.
2021-11-24 16:34:20.645 +07:00 ReqID:[0cccd04a-c72e-46ca-bfbc-e85599607d1f] [INF] HTTP POST /api/v2/CompanyParameter/GetCreditTermDropDown responded code: 200 in 1694.5268 ms
2021-11-24 16:34:20.646 +07:00 ReqID:[52f29f07-395f-4c7c-8f6e-59e6f4484615] [INF] HTTP POST /api/v2/CompanyParameter/GetMethodOfPaymentDropDown responded code: 200 in 1703.9534 ms
2021-11-24 16:34:20.648 +07:00 ReqID:[bf9b6060-e1d4-4ec4-ad41-7808c308c619] [INF] HTTP POST /api/v2/CompanyParameter/GetInvoiceTypeDropDown responded code: 200 in 1726.2696 ms
2021-11-24 16:34:20.832 +07:00 ReqID:[ce23be6b-0270-4679-b9d8-4012ff539dd1] [INF] HTTP POST /api/v2/CompanyParameter/GetInvoiceRevenueTypeDropDown responded code: 200 in 1884.3687 ms
2021-11-24 16:34:20.983 +07:00 ReqID:[27f4bd35-15f0-432e-b85d-806a5fbfd2a1] [INF] HTTP POST /api/v2/CompanyParameter/GetEmployeeFilterActiveStatusDropdown responded code: 200 in 465.5724 ms
2021-11-24 16:34:21.201 +07:00 ReqID:[1c54cae9-3588-431a-9909-72b56e4243de] [INF] HTTP POST /api/v2/CompanyParameter/GetCalendarGroupDropDown responded code: 200 in 571.9657 ms
2021-11-24 16:36:34.412 +07:00 ReqID:[0HMDF5ELBMVMM:00000008] [INF] HTTP OPTIONS /api/v2/CompanyParameter/GetDataCompaneParameterValidation started.
2021-11-24 16:36:34.415 +07:00 ReqID:[0HMDF5ELBMVMM:00000008] [INF] HTTP OPTIONS /api/v2/CompanyParameter/GetDataCompaneParameterValidation responded code: 204 in 0.4983 ms
2021-11-24 16:36:34.419 +07:00 ReqID:[485db437-a0de-40b3-b3ab-ed0e7812b58c] [INF] HTTP POST /api/v2/CompanyParameter/GetDataCompaneParameterValidation started.
2021-11-24 16:36:44.375 +07:00 ReqID:[485db437-a0de-40b3-b3ab-ed0e7812b58c] [ERR] <Exception>
Innoviz.SmartApp.Core.SmartAppException: ERROR.ERROR
2021-11-24 16:36:44.409 +07:00 ReqID:[485db437-a0de-40b3-b3ab-ed0e7812b58c] [ERR] <Exception>
Innoviz.SmartApp.Core.SmartAppException: ERROR.ERROR
   at Innoviz.SmartApp.Data.ServicesV2.CompanyParameterService.GetDataCompaneParameterValidation(CompanyParameterItemView vmodel) in P:\Innoviz\api\src\lib\Innoviz.SmartApp.Data\ServicesV2\CompanyParameterService.cs:line 293
2021-11-24 16:36:44.515 +07:00 ReqID:[485db437-a0de-40b3-b3ab-ed0e7812b58c] [ERR] <Exception>
Innoviz.SmartApp.Core.SmartAppException: ERROR.ERROR
   at Innoviz.SmartApp.Data.ServicesV2.CompanyParameterService.GetDataCompaneParameterValidation(CompanyParameterItemView vmodel) in P:\Innoviz\api\src\lib\Innoviz.SmartApp.Data\ServicesV2\CompanyParameterService.cs:line 299
   at Innoviz.SmartApp.WebApi.ControllersV2.CompanyParameterController.GetDataCompaneParameterValidation(CompanyParameterItemView view) in P:\Innoviz\api\src\Innoviz.SmartApp.WebApi\ControllersV2\CompanyParameterController.cs:line 137
2021-11-24 16:36:44.695 +07:00 ReqID:[485db437-a0de-40b3-b3ab-ed0e7812b58c] [ERR] 
#ApiErrorMessages
ERROR.ERROR
ERROR.90047 LABEL.AUTO_GEN_INV_REVENUE_TYPE_ID LABEL.FT_INTEREST_INV_TYPE_ID
#StackTrace
   at Innoviz.SmartApp.Data.ServicesV2.CompanyParameterService.GetDataCompaneParameterValidation(CompanyParameterItemView vmodel) in P:\Innoviz\api\src\lib\Innoviz.SmartApp.Data\ServicesV2\CompanyParameterService.cs:line 293
   at Innoviz.SmartApp.Data.ServicesV2.CompanyParameterService.GetDataCompaneParameterValidation(CompanyParameterItemView vmodel) in P:\Innoviz\api\src\lib\Innoviz.SmartApp.Data\ServicesV2\CompanyParameterService.cs:line 299
   at Innoviz.SmartApp.WebApi.ControllersV2.CompanyParameterController.GetDataCompaneParameterValidation(CompanyParameterItemView view) in P:\Innoviz\api\src\Innoviz.SmartApp.WebApi\ControllersV2\CompanyParameterController.cs:line 137
2021-11-24 16:36:44.712 +07:00 ReqID:[485db437-a0de-40b3-b3ab-ed0e7812b58c] [ERR] HTTP POST /api/v2/CompanyParameter/GetDataCompaneParameterValidation responded code: 400 in 10291.3364 ms
2021-11-24 16:36:44.721 +07:00 ReqID:[485db437-a0de-40b3-b3ab-ed0e7812b58c] [ERR] 
Reqest headers: {
  "Connection": "keep-alive",
  "Content-Type": "application/json",
  "Accept": "application/json, text/plain, */*",
  "Accept-Encoding": "gzip, deflate, br",
  "Accept-Language": "en-US,en;q=0.9,th;q=0.8",
  "Authorization": "Bearer eyJhbGciOiJSUzI1NiIsImtpZCI6Ik4wYms4dGExUU1xLXkxX0dBUlo2NkEiLCJ0eXAiOiJKV1QifQ.eyJuYmYiOjE2Mzc3NDY0MTgsImV4cCI6MTYzNzg0NjQxOCwiaXNzIjoiaHR0cHM6Ly9zbWFydGFwcC5pbm5vdml6c29sdXRpb25zLm5ldC9hdXRoIiwiYXVkIjpbImh0dHBzOi8vc21hcnRhcHAuaW5ub3ZpenNvbHV0aW9ucy5uZXQvYXV0aC9yZXNvdXJjZXMiLCJ3ZWItYXBpIiwiaWRlbnRpdHktc2VydmVyLWFwaSIsImJhdGNoLXVzZXItYXBpIl0sImNsaWVudF9pZCI6Im9pZGMtY2xpZW50LWRldiIsInN1YiI6ImNmNGJkMTI3LWFmOWUtNGU3Yi1iNTgzLTg0NGNlOTIwZTYwNyIsImF1dGhfdGltZSI6MTYzNzc0NjQxNiwiaWRwIjoibG9jYWwiLCJyb2xlIjoiYXV0aGVudGljYXRlZF9yb2xlIiwidXN1YmoiOiJjZjRiZDEyNy1hZjllLTRlN2ItYjU4My04NDRjZTkyMGU2MDciLCJ1c2VybmFtZSI6InN1dHRpcG9uZy5waCIsImluQWN0aXZlIjoiRmFsc2UiLCJlbWFpbCI6InN1dHRpcG9uZ3BAa3Jhb2lzLmNvbSIsInNjb3BlIjpbIm9wZW5pZCIsInByb2ZpbGUiLCJyb2xlIiwid2ViLWFwaS5kZXYiLCJpZGVudGl0eS1zZXJ2ZXItYXBpLnVzZXJzIiwiYmF0Y2gtdXNlci1hcGkiXSwiYW1yIjpbInB3ZCJdfQ.n9MVXX3ZMHm4hQPe4UYFuS2pIiWBWqpgvDfXVgdq9ecuSe_fBYobG3J-hZ4IWy7Ft4OaexUctFl5wxMNIhYArK0LlkV_LKW4oBm-hpoHRpY0Mka3sLv_HprFLcWDdEAoHyWC2Q_CYFhLnzouMnjcNRGxQViUBZfDSVLBoTfUqxw80Lt_QyehYftfzLqK-T2iwilvx4KBTmKaDl7Sr1SZetVzGBUn-VxEzGWRywPNypIazTOq9FbR5JueG5mDn1oGccoEwFXvo_HV7FB6BtkWjGh61TM7rRZyW_Gvd0-nJD9R1nXz4OmQDjYldLx6bXIg1lGZnuoXoqOzM26wTePU0A",
  "Host": "localhost:5001",
  "Referer": "http://localhost:4200/",
  "User-Agent": "Mozilla/5.0 (Windows NT 10.0; Win64; x64) AppleWebKit/537.36 (KHTML, like Gecko) Chrome/96.0.4664.45 Safari/537.36 Edg/96.0.1054.29",
  "Origin": "http://localhost:4200",
  "Content-Length": "3424",
  "sec-ch-ua": "\" Not A;Brand\";v=\"99\", \"Chromium\";v=\"96\", \"Microsoft Edge\";v=\"96\"",
  "RequestHeader": "485db437-a0de-40b3-b3ab-ed0e7812b58c",
  "sec-ch-ua-mobile": "?0",
  "SiteHeader": "back",
  "CompanyHeader": "0a099e6f-9ba8-4a06-9e7e-5cc28123a90e",
  "sec-ch-ua-platform": "\"Windows\"",
  "Sec-Fetch-Site": "same-site",
  "Sec-Fetch-Mode": "cors",
  "Sec-Fetch-Dest": "empty"
}
Reqest body: {
  "companyParameterGUID": "0a099e6f-9ba8-4a06-9e7e-5cc28123a90e",
  "agreementType": false,
  "autoSettleToleranceLedgerAcc": "790209",
  "botRealization": false,
  "calcSheetIncAdditionalCost": false,
  "calcSheetIncTax": true,
  "collectionFeeMethod": 1,
  "collectionFeeMinBalCal": 1,
  "collectionOverdueDay": 0,
  "earlyToleranceOverAmount": 50,
  "earlyToleranceOverLedgerAcc": "490001",
  "earlyToleranceUnderAmount": -50,
  "earlyToleranceUnderLedgerAcc": "590001",
  "homeCurrencyGUID": "2c3cf528-a564-4573-9464-cb348a891af3",
  "invoiceIssuing": 0,
  "invoiceIssuingDay": 0,
  "leaseSubType": false,
  "leaseType": true,
  "maximumPennyDifference": 0.09,
  "nplMethod": 0,
  "numberSeqVariable": "18",
  "overdueType": 1,
  "paymStructureRefNum": 0,
  "penaltyBase": 1,
  "penaltyCalculationMethod": 0,
  "pennyDifferenceLedgerAcc": "440110",
  "product": false,
  "productGroup": false,
  "provisionMethod": 0,
  "provisionRateBy": 1,
  "realizedGainExchRateLedgerAcc": "730901",
  "realizedLossExchRateLedgerAcc": "730901",
  "receiptGenBy": 0,
  "recordType": true,
  "settleByPeriod": false,
  "settlementGraceDay": 0,
  "vehicleTaxServiceFee": 300,
  "companyCalendarGroupGUID": "e3b58533-1918-4720-9e17-609e16172e45",
  "botCalendarGroupGUID": "8bd2f265-f956-4a4f-8d31-9be85ae91ec4",
  "creditReqInvRevenueTypeGUID": "3549300a-c4be-4b71-bc43-354d4a919da7",
  "serviceFeeInvTypeGUID": "08bff7aa-ce9f-48c4-9170-c23271b34523",
  "settlementMethodOfPaymentGUID": "99dce662-c678-4971-af77-aeb5f86aced2",
  "suspenseMethodOfPaymentGUID": "0eeb31a4-bb14-43ee-be8a-02ed3495341b",
  "ftBillingFeeInvRevenueTypeGUID": "02fa81e5-14a3-467a-9262-c9f8fa1b810e",
  "ftInterestInvTypeGUID": "e4d31868-ec52-4b96-95f4-f10aaea0717a",
  "ftInterestRefundInvTypeGUID": "f12dd06f-da51-42b7-9aaa-53d5dcbc6722",
  "ftFeeInvTypeGUID": "3cdd53cc-8107-4320-8a25-3e2aa6455ee8",
  "ftInvTypeGUID": "10b67332-fa47-4dd3-a6d9-64acb67bc1f1",
  "ftReceiptFeeInvRevenueTypeGUID": "c2a8511c-1ae9-42fd-b928-998ac5b57fa8",
  "ftReserveInvRevenueTypeGUID": "3218787f-926d-4079-854c-35d2a9ac94eb",
  "ftReserveToBeRefundedInvTypeGUID": "4c3450f5-9f45-42cf-bb82-e4262bf4cae3",
  "ftRetentionInvTypeGUID": "cf956471-1783-4949-a88a-ce0ade45095c",
  "ftUnearnedInterestInvTypeGUID": "2c7cf84e-e2af-4eb3-9ac3-706da89b6ff2",
  "pfInvTypeGUID": "d3427d40-ae48-46eb-885d-088cdb032946",
  "pfUnearnedInterestInvTypeGUID": "9debfa8d-0547-49fd-8a9c-237866707494",
  "pfInterestInvTypeGUID": "ce92f371-187d-4d11-bfab-daf15e0e8663",
  "pfInterestRefundInvTypeGUID": "41d1e488-4d57-4086-9ef5-434ceb083c99",
  "pfRetentionInvTypeGUID": "d98cb252-74bc-4cd7-ab57-20c3d7d2071b",
  "pfTermExtensionInvRevenueTypeGUID": "e9ff4fc0-331d-4971-a9cb-8df379eb620a",
  "buyerReviewedDay": 365,
  "chequeToleranceAmount": 0.1,
  "daysPerYear": 365,
  "maxCopyFinancialStatementNumOfYear": 3,
  "maxCopyTaxReportNumOfMonth": 12,
  "maxInterestPct": 15,
  "minUpcountryChequeFeeAmount": 10,
  "upcountryChequeFeePct": 10,
  "ftMaxRollbillInterestDay": 15,
  "ftMinInterestDay": 15,
  "ftRollbillInterestDay": 0,
  "pfInterestCutDay": 21,
  "pfTermExtensionDaysPerFeeAmount": 0,
  "pfMaxPostponeCollectionDay": 0,
  "ftRollbillUnearnedInterestInvTypeGUID": "e795411d-3f69-4c08-9681-aeefcf92b6ed",
  "operReportSignatureGUID": "f2eed648-7ae9-46f6-9ffc-8a1b29450642",
  "ftMinSettleInterestDayMaxPct": 0,
  "rowAuthorize": 4,
  "createdBy": "kasemsri",
  "createdDateTime": "04/09/2018 00:00:00",
  "modifiedBy": "web01",
  "modifiedDateTime": "08/10/2021 15:37:16",
  "companyGUID": "0a099e6f-9ba8-4a06-9e7e-5cc28123a90e",
  "companyId": "LIT_UAT",
  "owner": "kasemsri",
  "ownerBusinessUnitGUID": "d7ef2bcb-4582-422e-a369-6dc61b4b2071",
  "ownerBusinessUnitId": "BOSS",
  "guidStamp": "7f5d915c-5f10-4d90-9600-5653187f4cad"
}
Reqest host: localhost:5001
Reqest protocol: HTTP/1.1
2021-11-24 16:37:18.666 +07:00 ReqID:[0HMDF5ELBMVMM:0000000A] [INF] HTTP OPTIONS /api/v2/CompanyParameter/GetDataCompaneParameterValidation started.
2021-11-24 16:37:18.669 +07:00 ReqID:[0HMDF5ELBMVMM:0000000A] [INF] HTTP OPTIONS /api/v2/CompanyParameter/GetDataCompaneParameterValidation responded code: 204 in 0.5524 ms
2021-11-24 16:37:18.678 +07:00 ReqID:[219ee616-fd6b-4402-b8ec-0a4a06b80bf1] [INF] HTTP POST /api/v2/CompanyParameter/GetDataCompaneParameterValidation started.
2021-11-24 16:37:49.946 +07:00 ReqID:[219ee616-fd6b-4402-b8ec-0a4a06b80bf1] [ERR] <Exception>
Innoviz.SmartApp.Core.SmartAppException: ERROR.ERROR
2021-11-24 16:37:50.027 +07:00 ReqID:[219ee616-fd6b-4402-b8ec-0a4a06b80bf1] [ERR] <Exception>
Innoviz.SmartApp.Core.SmartAppException: ERROR.ERROR
   at Innoviz.SmartApp.Data.ServicesV2.CompanyParameterService.GetDataCompaneParameterValidation(CompanyParameterItemView vmodel) in P:\Innoviz\api\src\lib\Innoviz.SmartApp.Data\ServicesV2\CompanyParameterService.cs:line 293
2021-11-24 16:37:50.074 +07:00 ReqID:[219ee616-fd6b-4402-b8ec-0a4a06b80bf1] [ERR] <Exception>
Innoviz.SmartApp.Core.SmartAppException: ERROR.ERROR
   at Innoviz.SmartApp.Data.ServicesV2.CompanyParameterService.GetDataCompaneParameterValidation(CompanyParameterItemView vmodel) in P:\Innoviz\api\src\lib\Innoviz.SmartApp.Data\ServicesV2\CompanyParameterService.cs:line 299
   at Innoviz.SmartApp.WebApi.ControllersV2.CompanyParameterController.GetDataCompaneParameterValidation(CompanyParameterItemView view) in P:\Innoviz\api\src\Innoviz.SmartApp.WebApi\ControllersV2\CompanyParameterController.cs:line 137
2021-11-24 16:37:50.314 +07:00 ReqID:[219ee616-fd6b-4402-b8ec-0a4a06b80bf1] [ERR] 
#ApiErrorMessages
ERROR.ERROR
ERROR.90047 LABEL.AUTO_GEN_INV_REVENUE_TYPE_ID LABEL.FT_INTEREST_INV_TYPE_ID
ERROR.90164 LABEL.PAYMENT_TYPE LABEL.SETTLEMENT_METHOD_OF_PAYMENT_ID ENUM.LEDGER
#StackTrace
   at Innoviz.SmartApp.Data.ServicesV2.CompanyParameterService.GetDataCompaneParameterValidation(CompanyParameterItemView vmodel) in P:\Innoviz\api\src\lib\Innoviz.SmartApp.Data\ServicesV2\CompanyParameterService.cs:line 293
   at Innoviz.SmartApp.Data.ServicesV2.CompanyParameterService.GetDataCompaneParameterValidation(CompanyParameterItemView vmodel) in P:\Innoviz\api\src\lib\Innoviz.SmartApp.Data\ServicesV2\CompanyParameterService.cs:line 299
   at Innoviz.SmartApp.WebApi.ControllersV2.CompanyParameterController.GetDataCompaneParameterValidation(CompanyParameterItemView view) in P:\Innoviz\api\src\Innoviz.SmartApp.WebApi\ControllersV2\CompanyParameterController.cs:line 137
2021-11-24 16:37:50.321 +07:00 ReqID:[219ee616-fd6b-4402-b8ec-0a4a06b80bf1] [ERR] HTTP POST /api/v2/CompanyParameter/GetDataCompaneParameterValidation responded code: 400 in 31641.0402 ms
2021-11-24 16:37:50.324 +07:00 ReqID:[219ee616-fd6b-4402-b8ec-0a4a06b80bf1] [ERR] 
Reqest headers: {
  "Connection": "keep-alive",
  "Content-Type": "application/json",
  "Accept": "application/json, text/plain, */*",
  "Accept-Encoding": "gzip, deflate, br",
  "Accept-Language": "en-US,en;q=0.9,th;q=0.8",
  "Authorization": "Bearer eyJhbGciOiJSUzI1NiIsImtpZCI6Ik4wYms4dGExUU1xLXkxX0dBUlo2NkEiLCJ0eXAiOiJKV1QifQ.eyJuYmYiOjE2Mzc3NDY0MTgsImV4cCI6MTYzNzg0NjQxOCwiaXNzIjoiaHR0cHM6Ly9zbWFydGFwcC5pbm5vdml6c29sdXRpb25zLm5ldC9hdXRoIiwiYXVkIjpbImh0dHBzOi8vc21hcnRhcHAuaW5ub3ZpenNvbHV0aW9ucy5uZXQvYXV0aC9yZXNvdXJjZXMiLCJ3ZWItYXBpIiwiaWRlbnRpdHktc2VydmVyLWFwaSIsImJhdGNoLXVzZXItYXBpIl0sImNsaWVudF9pZCI6Im9pZGMtY2xpZW50LWRldiIsInN1YiI6ImNmNGJkMTI3LWFmOWUtNGU3Yi1iNTgzLTg0NGNlOTIwZTYwNyIsImF1dGhfdGltZSI6MTYzNzc0NjQxNiwiaWRwIjoibG9jYWwiLCJyb2xlIjoiYXV0aGVudGljYXRlZF9yb2xlIiwidXN1YmoiOiJjZjRiZDEyNy1hZjllLTRlN2ItYjU4My04NDRjZTkyMGU2MDciLCJ1c2VybmFtZSI6InN1dHRpcG9uZy5waCIsImluQWN0aXZlIjoiRmFsc2UiLCJlbWFpbCI6InN1dHRpcG9uZ3BAa3Jhb2lzLmNvbSIsInNjb3BlIjpbIm9wZW5pZCIsInByb2ZpbGUiLCJyb2xlIiwid2ViLWFwaS5kZXYiLCJpZGVudGl0eS1zZXJ2ZXItYXBpLnVzZXJzIiwiYmF0Y2gtdXNlci1hcGkiXSwiYW1yIjpbInB3ZCJdfQ.n9MVXX3ZMHm4hQPe4UYFuS2pIiWBWqpgvDfXVgdq9ecuSe_fBYobG3J-hZ4IWy7Ft4OaexUctFl5wxMNIhYArK0LlkV_LKW4oBm-hpoHRpY0Mka3sLv_HprFLcWDdEAoHyWC2Q_CYFhLnzouMnjcNRGxQViUBZfDSVLBoTfUqxw80Lt_QyehYftfzLqK-T2iwilvx4KBTmKaDl7Sr1SZetVzGBUn-VxEzGWRywPNypIazTOq9FbR5JueG5mDn1oGccoEwFXvo_HV7FB6BtkWjGh61TM7rRZyW_Gvd0-nJD9R1nXz4OmQDjYldLx6bXIg1lGZnuoXoqOzM26wTePU0A",
  "Host": "localhost:5001",
  "Referer": "http://localhost:4200/",
  "User-Agent": "Mozilla/5.0 (Windows NT 10.0; Win64; x64) AppleWebKit/537.36 (KHTML, like Gecko) Chrome/96.0.4664.45 Safari/537.36 Edg/96.0.1054.29",
  "Origin": "http://localhost:4200",
  "Content-Length": "3424",
  "sec-ch-ua": "\" Not A;Brand\";v=\"99\", \"Chromium\";v=\"96\", \"Microsoft Edge\";v=\"96\"",
  "RequestHeader": "219ee616-fd6b-4402-b8ec-0a4a06b80bf1",
  "sec-ch-ua-mobile": "?0",
  "SiteHeader": "back",
  "CompanyHeader": "0a099e6f-9ba8-4a06-9e7e-5cc28123a90e",
  "sec-ch-ua-platform": "\"Windows\"",
  "Sec-Fetch-Site": "same-site",
  "Sec-Fetch-Mode": "cors",
  "Sec-Fetch-Dest": "empty"
}
Reqest body: {
  "companyParameterGUID": "0a099e6f-9ba8-4a06-9e7e-5cc28123a90e",
  "agreementType": false,
  "autoSettleToleranceLedgerAcc": "790209",
  "botRealization": false,
  "calcSheetIncAdditionalCost": false,
  "calcSheetIncTax": true,
  "collectionFeeMethod": 1,
  "collectionFeeMinBalCal": 1,
  "collectionOverdueDay": 0,
  "earlyToleranceOverAmount": 50,
  "earlyToleranceOverLedgerAcc": "490001",
  "earlyToleranceUnderAmount": -50,
  "earlyToleranceUnderLedgerAcc": "590001",
  "homeCurrencyGUID": "2c3cf528-a564-4573-9464-cb348a891af3",
  "invoiceIssuing": 0,
  "invoiceIssuingDay": 0,
  "leaseSubType": false,
  "leaseType": true,
  "maximumPennyDifference": 0.09,
  "nplMethod": 0,
  "numberSeqVariable": "18",
  "overdueType": 1,
  "paymStructureRefNum": 0,
  "penaltyBase": 1,
  "penaltyCalculationMethod": 0,
  "pennyDifferenceLedgerAcc": "440110",
  "product": false,
  "productGroup": false,
  "provisionMethod": 0,
  "provisionRateBy": 1,
  "realizedGainExchRateLedgerAcc": "730901",
  "realizedLossExchRateLedgerAcc": "730901",
  "receiptGenBy": 0,
  "recordType": true,
  "settleByPeriod": false,
  "settlementGraceDay": 0,
  "vehicleTaxServiceFee": 300,
  "companyCalendarGroupGUID": "e3b58533-1918-4720-9e17-609e16172e45",
  "botCalendarGroupGUID": "8bd2f265-f956-4a4f-8d31-9be85ae91ec4",
  "creditReqInvRevenueTypeGUID": "3549300a-c4be-4b71-bc43-354d4a919da7",
  "serviceFeeInvTypeGUID": "08bff7aa-ce9f-48c4-9170-c23271b34523",
  "settlementMethodOfPaymentGUID": "99dce662-c678-4971-af77-aeb5f86aced2",
  "suspenseMethodOfPaymentGUID": "0eeb31a4-bb14-43ee-be8a-02ed3495341b",
  "ftBillingFeeInvRevenueTypeGUID": "02fa81e5-14a3-467a-9262-c9f8fa1b810e",
  "ftInterestInvTypeGUID": "e4d31868-ec52-4b96-95f4-f10aaea0717a",
  "ftInterestRefundInvTypeGUID": "f12dd06f-da51-42b7-9aaa-53d5dcbc6722",
  "ftFeeInvTypeGUID": "3cdd53cc-8107-4320-8a25-3e2aa6455ee8",
  "ftInvTypeGUID": "10b67332-fa47-4dd3-a6d9-64acb67bc1f1",
  "ftReceiptFeeInvRevenueTypeGUID": "c2a8511c-1ae9-42fd-b928-998ac5b57fa8",
  "ftReserveInvRevenueTypeGUID": "3218787f-926d-4079-854c-35d2a9ac94eb",
  "ftReserveToBeRefundedInvTypeGUID": "4c3450f5-9f45-42cf-bb82-e4262bf4cae3",
  "ftRetentionInvTypeGUID": "cf956471-1783-4949-a88a-ce0ade45095c",
  "ftUnearnedInterestInvTypeGUID": "2c7cf84e-e2af-4eb3-9ac3-706da89b6ff2",
  "pfInvTypeGUID": "d3427d40-ae48-46eb-885d-088cdb032946",
  "pfUnearnedInterestInvTypeGUID": "9debfa8d-0547-49fd-8a9c-237866707494",
  "pfInterestInvTypeGUID": "ce92f371-187d-4d11-bfab-daf15e0e8663",
  "pfInterestRefundInvTypeGUID": "41d1e488-4d57-4086-9ef5-434ceb083c99",
  "pfRetentionInvTypeGUID": "d98cb252-74bc-4cd7-ab57-20c3d7d2071b",
  "pfTermExtensionInvRevenueTypeGUID": "e9ff4fc0-331d-4971-a9cb-8df379eb620a",
  "buyerReviewedDay": 365,
  "chequeToleranceAmount": 0.1,
  "daysPerYear": 365,
  "maxCopyFinancialStatementNumOfYear": 3,
  "maxCopyTaxReportNumOfMonth": 12,
  "maxInterestPct": 15,
  "minUpcountryChequeFeeAmount": 10,
  "upcountryChequeFeePct": 10,
  "ftMaxRollbillInterestDay": 15,
  "ftMinInterestDay": 15,
  "ftRollbillInterestDay": 0,
  "pfInterestCutDay": 21,
  "pfTermExtensionDaysPerFeeAmount": 0,
  "pfMaxPostponeCollectionDay": 0,
  "ftRollbillUnearnedInterestInvTypeGUID": "e795411d-3f69-4c08-9681-aeefcf92b6ed",
  "operReportSignatureGUID": "f2eed648-7ae9-46f6-9ffc-8a1b29450642",
  "ftMinSettleInterestDayMaxPct": 0,
  "rowAuthorize": 4,
  "createdBy": "kasemsri",
  "createdDateTime": "04/09/2018 00:00:00",
  "modifiedBy": "web01",
  "modifiedDateTime": "08/10/2021 15:37:16",
  "companyGUID": "0a099e6f-9ba8-4a06-9e7e-5cc28123a90e",
  "companyId": "LIT_UAT",
  "owner": "kasemsri",
  "ownerBusinessUnitGUID": "d7ef2bcb-4582-422e-a369-6dc61b4b2071",
  "ownerBusinessUnitId": "BOSS",
  "guidStamp": "7f5d915c-5f10-4d90-9600-5653187f4cad"
}
Reqest host: localhost:5001
Reqest protocol: HTTP/1.1
2021-11-24 17:16:43.954 +07:00 ReqID:[0HMDF5ELBMVMR:00000001] [INF] HTTP OPTIONS /api/v2/BankType/GetBankTypeList/ByCompany started.
2021-11-24 17:16:43.956 +07:00 ReqID:[0HMDF5ELBMVMR:00000001] [INF] HTTP OPTIONS /api/v2/BankType/GetBankTypeList/ByCompany responded code: 204 in 0.5393 ms
2021-11-24 17:16:43.966 +07:00 ReqID:[6bc09b66-ec80-46ba-b664-624d0197cda6] [INF] HTTP POST /api/v2/BankType/GetBankTypeList/ByCompany started.
2021-11-24 17:16:44.911 +07:00 ReqID:[6bc09b66-ec80-46ba-b664-624d0197cda6] [INF] HTTP POST /api/v2/BankType/GetBankTypeList/ByCompany responded code: 200 in 940.5930 ms
2021-11-24 17:16:54.995 +07:00 ReqID:[0HMDF5ELBMVMR:00000003] [INF] HTTP OPTIONS /api/v2/BusinessCollateralType/GetBusinessCollateralTypeList/ByCompany started.
2021-11-24 17:16:54.998 +07:00 ReqID:[0HMDF5ELBMVMR:00000003] [INF] HTTP OPTIONS /api/v2/BusinessCollateralType/GetBusinessCollateralTypeList/ByCompany responded code: 204 in 0.3170 ms
2021-11-24 17:16:55.001 +07:00 ReqID:[e2fa1f3c-5e05-4444-a5c5-28e8fb5f8363] [INF] HTTP POST /api/v2/BusinessCollateralType/GetBusinessCollateralTypeList/ByCompany started.
2021-11-24 17:16:55.578 +07:00 ReqID:[e2fa1f3c-5e05-4444-a5c5-28e8fb5f8363] [INF] HTTP POST /api/v2/BusinessCollateralType/GetBusinessCollateralTypeList/ByCompany responded code: 200 in 573.9321 ms
2021-11-24 17:17:02.805 +07:00 ReqID:[0HMDF5ELBMVMR:00000005] [INF] HTTP OPTIONS /api/v2/BusinessCollateralType/GetBusinessCollateralTypeById/id=045f4db4-0ada-4003-a3d9-dac2ec3cfa95 started.
2021-11-24 17:17:02.806 +07:00 ReqID:[0HMDF5ELBMVMR:00000005] [INF] HTTP OPTIONS /api/v2/BusinessCollateralType/GetBusinessCollateralTypeById/id=045f4db4-0ada-4003-a3d9-dac2ec3cfa95 responded code: 204 in 0.2394 ms
2021-11-24 17:17:02.813 +07:00 ReqID:[a1d3abd0-b5fe-4891-b32b-c9434a2aaee4] [INF] HTTP GET /api/v2/BusinessCollateralType/GetBusinessCollateralTypeById/id=045f4db4-0ada-4003-a3d9-dac2ec3cfa95 started.
2021-11-24 17:17:03.042 +07:00 ReqID:[0HMDF5ELBMVMS:00000001] [INF] HTTP OPTIONS /api/v2/BusinessCollateralType/GetBusinessCollateralSubTypeList/ByCompany started.
2021-11-24 17:17:03.045 +07:00 ReqID:[0HMDF5ELBMVMS:00000001] [INF] HTTP OPTIONS /api/v2/BusinessCollateralType/GetBusinessCollateralSubTypeList/ByCompany responded code: 204 in 0.3826 ms
2021-11-24 17:17:03.049 +07:00 ReqID:[c19e3fd2-1758-4bf3-87a7-0d30f872c52c] [INF] HTTP POST /api/v2/BusinessCollateralType/GetBusinessCollateralSubTypeList/ByCompany started.
2021-11-24 17:17:03.247 +07:00 ReqID:[a1d3abd0-b5fe-4891-b32b-c9434a2aaee4] [INF] HTTP GET /api/v2/BusinessCollateralType/GetBusinessCollateralTypeById/id=045f4db4-0ada-4003-a3d9-dac2ec3cfa95 responded code: 200 in 432.7953 ms
2021-11-24 17:17:03.913 +07:00 ReqID:[c19e3fd2-1758-4bf3-87a7-0d30f872c52c] [INF] HTTP POST /api/v2/BusinessCollateralType/GetBusinessCollateralSubTypeList/ByCompany responded code: 200 in 860.4752 ms
2021-11-24 17:17:21.322 +07:00 ReqID:[0HMDF5ELBMVMS:00000003] [INF] HTTP OPTIONS /api/v2/BusinessCollateralType/GetBusinessCollateralSubTypeById/id=203ebc7a-b3e4-4c6e-be75-73438ce7716f started.
2021-11-24 17:17:21.329 +07:00 ReqID:[0HMDF5ELBMVMS:00000003] [INF] HTTP OPTIONS /api/v2/BusinessCollateralType/GetBusinessCollateralSubTypeById/id=203ebc7a-b3e4-4c6e-be75-73438ce7716f responded code: 204 in 0.2605 ms
2021-11-24 17:17:21.339 +07:00 ReqID:[441a0737-6956-499c-81dc-b6abf08bd53f] [INF] HTTP GET /api/v2/BusinessCollateralType/GetBusinessCollateralSubTypeById/id=203ebc7a-b3e4-4c6e-be75-73438ce7716f started.
2021-11-24 17:17:21.932 +07:00 ReqID:[441a0737-6956-499c-81dc-b6abf08bd53f] [INF] HTTP GET /api/v2/BusinessCollateralType/GetBusinessCollateralSubTypeById/id=203ebc7a-b3e4-4c6e-be75-73438ce7716f responded code: 200 in 591.6196 ms
2021-11-24 17:17:21.938 +07:00 ReqID:[0HMDF5ELBMVMS:00000005] [INF] HTTP OPTIONS /api/v2/BusinessCollateralType/GetBusinessCollateralTypeDropDown started.
2021-11-24 17:17:21.940 +07:00 ReqID:[0HMDF5ELBMVMS:00000005] [INF] HTTP OPTIONS /api/v2/BusinessCollateralType/GetBusinessCollateralTypeDropDown responded code: 204 in 0.2341 ms
2021-11-24 17:17:21.942 +07:00 ReqID:[e04828dd-62e2-40be-ae02-184dd7d461d4] [INF] HTTP POST /api/v2/BusinessCollateralType/GetBusinessCollateralTypeDropDown started.
2021-11-24 17:17:22.293 +07:00 ReqID:[e04828dd-62e2-40be-ae02-184dd7d461d4] [INF] HTTP POST /api/v2/BusinessCollateralType/GetBusinessCollateralTypeDropDown responded code: 200 in 346.5841 ms
2021-11-24 17:17:33.057 +07:00 ReqID:[0HMDF5ELBMVMS:00000007] [INF] HTTP OPTIONS /api/v2/CustGroup/GetCustGroupList/ByCompany started.
2021-11-24 17:17:33.059 +07:00 ReqID:[0HMDF5ELBMVMS:00000007] [INF] HTTP OPTIONS /api/v2/CustGroup/GetCustGroupList/ByCompany responded code: 204 in 0.2466 ms
2021-11-24 17:17:33.063 +07:00 ReqID:[2a793d48-cf13-421e-86ab-1ebb92dd84f6] [INF] HTTP POST /api/v2/CustGroup/GetCustGroupList/ByCompany started.
2021-11-24 17:17:33.635 +07:00 ReqID:[2a793d48-cf13-421e-86ab-1ebb92dd84f6] [INF] HTTP POST /api/v2/CustGroup/GetCustGroupList/ByCompany responded code: 200 in 569.1203 ms
2021-11-24 17:17:46.479 +07:00 ReqID:[0HMDF5ELBMVMS:00000009] [INF] HTTP OPTIONS /api/v2/DocumentType/GetDocumentTypeList/ByCompany started.
2021-11-24 17:17:46.483 +07:00 ReqID:[0HMDF5ELBMVMS:00000009] [INF] HTTP OPTIONS /api/v2/DocumentType/GetDocumentTypeList/ByCompany responded code: 204 in 0.3047 ms
2021-11-24 17:17:46.490 +07:00 ReqID:[f322f903-8b63-4ef8-9201-3f4d415c78dd] [INF] HTTP POST /api/v2/DocumentType/GetDocumentTypeList/ByCompany started.
2021-11-24 17:17:47.039 +07:00 ReqID:[f322f903-8b63-4ef8-9201-3f4d415c78dd] [INF] HTTP POST /api/v2/DocumentType/GetDocumentTypeList/ByCompany responded code: 200 in 547.2745 ms
2021-11-24 17:17:57.345 +07:00 ReqID:[0HMDF5ELBMVMS:0000000B] [INF] HTTP OPTIONS /api/v2/MaritalStatus/GetMaritalStatusList/ByCompany started.
2021-11-24 17:17:57.348 +07:00 ReqID:[0HMDF5ELBMVMS:0000000B] [INF] HTTP OPTIONS /api/v2/MaritalStatus/GetMaritalStatusList/ByCompany responded code: 204 in 0.2554 ms
2021-11-24 17:17:57.352 +07:00 ReqID:[ea233fd5-d48a-4b51-9029-e8a011936acc] [INF] HTTP POST /api/v2/MaritalStatus/GetMaritalStatusList/ByCompany started.
2021-11-24 17:17:57.865 +07:00 ReqID:[ea233fd5-d48a-4b51-9029-e8a011936acc] [INF] HTTP POST /api/v2/MaritalStatus/GetMaritalStatusList/ByCompany responded code: 200 in 510.7567 ms
