2021-12-01 09:32:00.799 +07:00 ReqID:[] [INF] Starting host
2021-12-01 09:32:10.769 +07:00 ReqID:[0HMDKEB2SQUIM:00000001] [INF] HTTP GET /api/values started.
2021-12-01 09:32:14.298 +07:00 ReqID:[0HMDKEB2SQUIM:00000001] [INF] HTTP GET /api/values responded code: 404 in 3163.5379 ms
2021-12-01 12:28:04.927 +07:00 ReqID:[0HMDKEB2SQUIN:00000001] [INF] HTTP OPTIONS /api/v2/SysUser/CheckExistingUser started.
2021-12-01 12:28:04.927 +07:00 ReqID:[0HMDKEB2SQUIO:00000001] [INF] HTTP OPTIONS /api/v2/SysAccessRight/UserDefaultBranchCompanyAccessRight/cf4bd127-af9e-4e7b-b583-844ce920e607 started.
2021-12-01 12:28:04.946 +07:00 ReqID:[0HMDKEB2SQUIO:00000001] [INF] HTTP OPTIONS /api/v2/SysAccessRight/UserDefaultBranchCompanyAccessRight/cf4bd127-af9e-4e7b-b583-844ce920e607 responded code: 204 in 13.8065 ms
2021-12-01 12:28:04.946 +07:00 ReqID:[0HMDKEB2SQUIN:00000001] [INF] HTTP OPTIONS /api/v2/SysUser/CheckExistingUser responded code: 204 in 15.0722 ms
2021-12-01 12:28:04.995 +07:00 ReqID:[84e784c8-a1c7-4958-9820-888d25b9096f] [INF] HTTP GET /api/v2/SysAccessRight/UserDefaultBranchCompanyAccessRight/cf4bd127-af9e-4e7b-b583-844ce920e607 started.
2021-12-01 12:28:04.995 +07:00 ReqID:[7911fbeb-7075-446b-a2e5-1d9b16fd21b9] [INF] HTTP POST /api/v2/SysUser/CheckExistingUser started.
2021-12-01 12:28:14.640 +07:00 ReqID:[7911fbeb-7075-446b-a2e5-1d9b16fd21b9] [INF] HTTP POST /api/v2/SysUser/CheckExistingUser responded code: 200 in 9638.7028 ms
2021-12-01 12:28:15.739 +07:00 ReqID:[84e784c8-a1c7-4958-9820-888d25b9096f] [INF] HTTP GET /api/v2/SysAccessRight/UserDefaultBranchCompanyAccessRight/cf4bd127-af9e-4e7b-b583-844ce920e607 responded code: 200 in 10742.8800 ms
2021-12-01 12:28:17.913 +07:00 ReqID:[0HMDKEB2SQUIO:00000003] [INF] HTTP OPTIONS /api/v2/Home/GetTaskList started.
2021-12-01 12:28:17.915 +07:00 ReqID:[0HMDKEB2SQUIO:00000003] [INF] HTTP OPTIONS /api/v2/Home/GetTaskList responded code: 204 in 0.3928 ms
2021-12-01 12:28:17.920 +07:00 ReqID:[6bb54c9e-1142-4916-8a75-7d307dfeb4be] [INF] HTTP POST /api/v2/Home/GetTaskList started.
2021-12-01 12:28:17.929 +07:00 ReqID:[70876394-1556-4e46-bc28-6b5ce823e33f] [INF] HTTP POST /api/v2/Home/GetTaskList started.
2021-12-01 12:28:18.807 +07:00 ReqID:[6bb54c9e-1142-4916-8a75-7d307dfeb4be] [INF] HTTP POST /api/v2/Home/GetTaskList responded code: 200 in 885.5652 ms
2021-12-01 12:28:18.807 +07:00 ReqID:[70876394-1556-4e46-bc28-6b5ce823e33f] [INF] HTTP POST /api/v2/Home/GetTaskList responded code: 200 in 876.5157 ms
2021-12-01 12:28:41.489 +07:00 ReqID:[0HMDKEB2SQUIO:00000005] [INF] HTTP OPTIONS /api/v2/JobType/GetJobTypeList/ByCompany started.
2021-12-01 12:28:41.512 +07:00 ReqID:[0HMDKEB2SQUIO:00000005] [INF] HTTP OPTIONS /api/v2/JobType/GetJobTypeList/ByCompany responded code: 204 in 0.8084 ms
2021-12-01 12:28:41.541 +07:00 ReqID:[7c3225fb-5901-4c1b-a0ea-c9c2d4cf1388] [INF] HTTP POST /api/v2/JobType/GetJobTypeList/ByCompany started.
2021-12-01 12:28:42.733 +07:00 ReqID:[7c3225fb-5901-4c1b-a0ea-c9c2d4cf1388] [INF] HTTP POST /api/v2/JobType/GetJobTypeList/ByCompany responded code: 200 in 1190.6997 ms
2021-12-01 12:28:48.148 +07:00 ReqID:[0HMDKEB2SQUIO:00000007] [INF] HTTP OPTIONS /api/v2/JobType/GetJobTypeById/id=9c7ecd66-3b5b-4afa-8b40-4530516d75f0 started.
2021-12-01 12:28:48.150 +07:00 ReqID:[0HMDKEB2SQUIO:00000007] [INF] HTTP OPTIONS /api/v2/JobType/GetJobTypeById/id=9c7ecd66-3b5b-4afa-8b40-4530516d75f0 responded code: 204 in 0.5111 ms
2021-12-01 12:28:48.154 +07:00 ReqID:[25c3c629-a609-4594-8386-a5a41f5144b0] [INF] HTTP GET /api/v2/JobType/GetJobTypeById/id=9c7ecd66-3b5b-4afa-8b40-4530516d75f0 started.
2021-12-01 12:28:48.543 +07:00 ReqID:[25c3c629-a609-4594-8386-a5a41f5144b0] [INF] HTTP GET /api/v2/JobType/GetJobTypeById/id=9c7ecd66-3b5b-4afa-8b40-4530516d75f0 responded code: 200 in 388.2837 ms
2021-12-01 12:28:52.324 +07:00 ReqID:[0HMDKEB2SQUIO:00000009] [INF] HTTP OPTIONS /api/v2/JobType/UpdateJobType started.
2021-12-01 12:28:52.327 +07:00 ReqID:[0HMDKEB2SQUIO:00000009] [INF] HTTP OPTIONS /api/v2/JobType/UpdateJobType responded code: 204 in 0.4334 ms
2021-12-01 12:28:52.332 +07:00 ReqID:[20120f0d-a841-4c38-9c79-a7f8cef92ba7] [INF] HTTP POST /api/v2/JobType/UpdateJobType started.
2021-12-01 12:28:53.440 +07:00 ReqID:[20120f0d-a841-4c38-9c79-a7f8cef92ba7] [INF] HTTP POST /api/v2/JobType/UpdateJobType responded code: 200 in 1104.8338 ms
2021-12-01 12:28:54.990 +07:00 ReqID:[0HMDKEB2SQUIO:0000000B] [INF] HTTP OPTIONS /api/v2/JobType/GetJobTypeList/ByCompany started.
2021-12-01 12:28:54.992 +07:00 ReqID:[0HMDKEB2SQUIO:0000000B] [INF] HTTP OPTIONS /api/v2/JobType/GetJobTypeList/ByCompany responded code: 204 in 0.4878 ms
2021-12-01 12:28:55.000 +07:00 ReqID:[c0e5bd43-4bab-4fa3-afe6-20eddedee2a0] [INF] HTTP POST /api/v2/JobType/GetJobTypeList/ByCompany started.
2021-12-01 12:28:55.569 +07:00 ReqID:[c0e5bd43-4bab-4fa3-afe6-20eddedee2a0] [INF] HTTP POST /api/v2/JobType/GetJobTypeList/ByCompany responded code: 200 in 566.6975 ms
2021-12-01 12:29:05.645 +07:00 ReqID:[0HMDKEB2SQUIO:0000000D] [INF] HTTP OPTIONS /api/v2/JobType/GetJobTypeList/ByCompany started.
2021-12-01 12:29:05.648 +07:00 ReqID:[0HMDKEB2SQUIO:0000000D] [INF] HTTP OPTIONS /api/v2/JobType/GetJobTypeList/ByCompany responded code: 204 in 0.5056 ms
2021-12-01 12:29:05.656 +07:00 ReqID:[1994b7fa-ebb8-4b71-b926-258b3ed56c57] [INF] HTTP POST /api/v2/JobType/GetJobTypeList/ByCompany started.
2021-12-01 12:29:06.133 +07:00 ReqID:[1994b7fa-ebb8-4b71-b926-258b3ed56c57] [INF] HTTP POST /api/v2/JobType/GetJobTypeList/ByCompany responded code: 200 in 475.0413 ms
2021-12-01 12:29:39.272 +07:00 ReqID:[0HMDKEB2SQUIO:0000000F] [INF] HTTP OPTIONS /api/v2/JobType/CreateJobType started.
2021-12-01 12:29:39.276 +07:00 ReqID:[0HMDKEB2SQUIO:0000000F] [INF] HTTP OPTIONS /api/v2/JobType/CreateJobType responded code: 204 in 0.3189 ms
2021-12-01 12:29:39.288 +07:00 ReqID:[7ec7672a-6bd9-4ae4-bb74-28750051927b] [INF] HTTP POST /api/v2/JobType/CreateJobType started.
2021-12-01 12:29:39.792 +07:00 ReqID:[7ec7672a-6bd9-4ae4-bb74-28750051927b] [INF] HTTP POST /api/v2/JobType/CreateJobType responded code: 200 in 502.7087 ms
2021-12-01 12:29:41.370 +07:00 ReqID:[0HMDKEB2SQUIO:00000011] [INF] HTTP OPTIONS /api/v2/JobType/GetJobTypeList/ByCompany started.
2021-12-01 12:29:41.372 +07:00 ReqID:[0HMDKEB2SQUIO:00000011] [INF] HTTP OPTIONS /api/v2/JobType/GetJobTypeList/ByCompany responded code: 204 in 0.4604 ms
2021-12-01 12:29:41.379 +07:00 ReqID:[2ea47c5d-0479-465b-a7d1-485764093b10] [INF] HTTP POST /api/v2/JobType/GetJobTypeList/ByCompany started.
2021-12-01 12:29:41.943 +07:00 ReqID:[2ea47c5d-0479-465b-a7d1-485764093b10] [INF] HTTP POST /api/v2/JobType/GetJobTypeList/ByCompany responded code: 200 in 560.5448 ms
2021-12-01 12:29:45.620 +07:00 ReqID:[0HMDKEB2SQUIO:00000013] [INF] HTTP OPTIONS /api/v2/JobType/GetJobTypeById/id=40001941-2e0c-4c96-8414-d5981397c8fc started.
2021-12-01 12:29:45.622 +07:00 ReqID:[0HMDKEB2SQUIO:00000013] [INF] HTTP OPTIONS /api/v2/JobType/GetJobTypeById/id=40001941-2e0c-4c96-8414-d5981397c8fc responded code: 204 in 0.5686 ms
2021-12-01 12:29:45.627 +07:00 ReqID:[4848d343-26c9-446f-83e2-b2ad1ba3c482] [INF] HTTP GET /api/v2/JobType/GetJobTypeById/id=40001941-2e0c-4c96-8414-d5981397c8fc started.
2021-12-01 12:29:46.059 +07:00 ReqID:[4848d343-26c9-446f-83e2-b2ad1ba3c482] [INF] HTTP GET /api/v2/JobType/GetJobTypeById/id=40001941-2e0c-4c96-8414-d5981397c8fc responded code: 200 in 430.3182 ms
2021-12-01 12:29:50.312 +07:00 ReqID:[0HMDKEB2SQUIO:00000015] [INF] HTTP OPTIONS /api/v2/JobType/GetJobTypeList/ByCompany started.
2021-12-01 12:29:50.316 +07:00 ReqID:[0HMDKEB2SQUIO:00000015] [INF] HTTP OPTIONS /api/v2/JobType/GetJobTypeList/ByCompany responded code: 204 in 0.4096 ms
2021-12-01 12:29:50.321 +07:00 ReqID:[af1ce7fa-3399-4097-8c9b-dec1a868eaf3] [INF] HTTP POST /api/v2/JobType/GetJobTypeList/ByCompany started.
2021-12-01 12:29:50.803 +07:00 ReqID:[af1ce7fa-3399-4097-8c9b-dec1a868eaf3] [INF] HTTP POST /api/v2/JobType/GetJobTypeList/ByCompany responded code: 200 in 478.8696 ms
2021-12-01 12:29:53.365 +07:00 ReqID:[0HMDKEB2SQUIO:00000017] [INF] HTTP OPTIONS /api/v2/JobType/DeleteJobType started.
2021-12-01 12:29:53.372 +07:00 ReqID:[0HMDKEB2SQUIO:00000017] [INF] HTTP OPTIONS /api/v2/JobType/DeleteJobType responded code: 204 in 0.5061 ms
2021-12-01 12:29:53.378 +07:00 ReqID:[8fb8e479-d58a-4f2f-83b1-34499786fba8] [INF] HTTP POST /api/v2/JobType/DeleteJobType started.
2021-12-01 12:29:53.857 +07:00 ReqID:[8fb8e479-d58a-4f2f-83b1-34499786fba8] [INF] HTTP POST /api/v2/JobType/DeleteJobType responded code: 200 in 478.1289 ms
2021-12-01 12:29:53.861 +07:00 ReqID:[7213dd56-cdfd-4eeb-8c07-081944dd6bce] [INF] HTTP POST /api/v2/JobType/GetJobTypeList/ByCompany started.
2021-12-01 12:29:54.444 +07:00 ReqID:[7213dd56-cdfd-4eeb-8c07-081944dd6bce] [INF] HTTP POST /api/v2/JobType/GetJobTypeList/ByCompany responded code: 200 in 581.3931 ms
2021-12-01 12:29:55.922 +07:00 ReqID:[0HMDKEB2SQUIO:0000001A] [INF] HTTP OPTIONS /api/v2/JobType/GetJobTypeList/ByCompany started.
2021-12-01 12:29:55.924 +07:00 ReqID:[0HMDKEB2SQUIO:0000001A] [INF] HTTP OPTIONS /api/v2/JobType/GetJobTypeList/ByCompany responded code: 204 in 0.3742 ms
2021-12-01 12:29:55.927 +07:00 ReqID:[2ce9d263-3a84-4aee-8690-17190d3fb3f1] [INF] HTTP POST /api/v2/JobType/GetJobTypeList/ByCompany started.
2021-12-01 12:29:56.473 +07:00 ReqID:[2ce9d263-3a84-4aee-8690-17190d3fb3f1] [INF] HTTP POST /api/v2/JobType/GetJobTypeList/ByCompany responded code: 200 in 544.5228 ms
2021-12-01 12:29:58.022 +07:00 ReqID:[4398d818-c93f-45b2-adcf-5cb045217612] [INF] HTTP POST /api/v2/JobType/GetJobTypeList/ByCompany started.
2021-12-01 12:29:58.502 +07:00 ReqID:[4398d818-c93f-45b2-adcf-5cb045217612] [INF] HTTP POST /api/v2/JobType/GetJobTypeList/ByCompany responded code: 200 in 474.7157 ms
2021-12-01 12:34:35.177 +07:00 ReqID:[0HMDKEB2SQUIP:00000001] [INF] HTTP OPTIONS /api/v2/JobType/GetJobTypeList/ByCompany started.
2021-12-01 12:34:35.180 +07:00 ReqID:[0HMDKEB2SQUIP:00000001] [INF] HTTP OPTIONS /api/v2/JobType/GetJobTypeList/ByCompany responded code: 204 in 0.7290 ms
2021-12-01 12:34:35.188 +07:00 ReqID:[146a1c69-4712-464c-86d6-a3e5d722509d] [INF] HTTP POST /api/v2/JobType/GetJobTypeList/ByCompany started.
2021-12-01 12:34:35.973 +07:00 ReqID:[146a1c69-4712-464c-86d6-a3e5d722509d] [INF] HTTP POST /api/v2/JobType/GetJobTypeList/ByCompany responded code: 200 in 783.1133 ms
2021-12-01 12:35:53.048 +07:00 ReqID:[0HMDKEB2SQUIQ:00000001] [INF] HTTP OPTIONS /api/v2/JobType/GetJobTypeById/id=9c7ecd66-3b5b-4afa-8b40-4530516d75f0 started.
2021-12-01 12:35:53.051 +07:00 ReqID:[0HMDKEB2SQUIQ:00000001] [INF] HTTP OPTIONS /api/v2/JobType/GetJobTypeById/id=9c7ecd66-3b5b-4afa-8b40-4530516d75f0 responded code: 204 in 0.5810 ms
2021-12-01 12:35:53.064 +07:00 ReqID:[d0b0c156-b210-4c41-8953-def789c58502] [INF] HTTP GET /api/v2/JobType/GetJobTypeById/id=9c7ecd66-3b5b-4afa-8b40-4530516d75f0 started.
2021-12-01 12:35:53.438 +07:00 ReqID:[d0b0c156-b210-4c41-8953-def789c58502] [INF] HTTP GET /api/v2/JobType/GetJobTypeById/id=9c7ecd66-3b5b-4afa-8b40-4530516d75f0 responded code: 200 in 370.7127 ms
2021-12-01 12:35:56.247 +07:00 ReqID:[0HMDKEB2SQUIQ:00000003] [INF] HTTP OPTIONS /api/v2/JobType/UpdateJobType started.
2021-12-01 12:35:56.250 +07:00 ReqID:[0HMDKEB2SQUIQ:00000003] [INF] HTTP OPTIONS /api/v2/JobType/UpdateJobType responded code: 204 in 0.1853 ms
2021-12-01 12:35:56.254 +07:00 ReqID:[3581ff6b-5d8e-417f-a3dc-da9b7461b12d] [INF] HTTP POST /api/v2/JobType/UpdateJobType started.
2021-12-01 12:35:56.773 +07:00 ReqID:[3581ff6b-5d8e-417f-a3dc-da9b7461b12d] [INF] HTTP POST /api/v2/JobType/UpdateJobType responded code: 200 in 517.4925 ms
2021-12-01 12:35:58.584 +07:00 ReqID:[0HMDKEB2SQUIQ:00000005] [INF] HTTP OPTIONS /api/v2/JobType/GetJobTypeList/ByCompany started.
2021-12-01 12:35:58.586 +07:00 ReqID:[0HMDKEB2SQUIQ:00000005] [INF] HTTP OPTIONS /api/v2/JobType/GetJobTypeList/ByCompany responded code: 204 in 0.1246 ms
2021-12-01 12:35:58.590 +07:00 ReqID:[8ed6534c-97ab-4d75-8eb8-c79d01889995] [INF] HTTP POST /api/v2/JobType/GetJobTypeList/ByCompany started.
2021-12-01 12:35:59.087 +07:00 ReqID:[8ed6534c-97ab-4d75-8eb8-c79d01889995] [INF] HTTP POST /api/v2/JobType/GetJobTypeList/ByCompany responded code: 200 in 490.8912 ms
2021-12-01 12:37:55.465 +07:00 ReqID:[0HMDKEB2SQUIQ:00000007] [INF] HTTP OPTIONS /api/v2/JobType/GetJobTypeList/ByCompany started.
2021-12-01 12:37:55.467 +07:00 ReqID:[0HMDKEB2SQUIQ:00000007] [INF] HTTP OPTIONS /api/v2/JobType/GetJobTypeList/ByCompany responded code: 204 in 0.1776 ms
2021-12-01 12:37:55.473 +07:00 ReqID:[b6640196-0821-47d3-824d-0c0c9b334b90] [INF] HTTP POST /api/v2/JobType/GetJobTypeList/ByCompany started.
2021-12-01 12:37:56.010 +07:00 ReqID:[b6640196-0821-47d3-824d-0c0c9b334b90] [INF] HTTP POST /api/v2/JobType/GetJobTypeList/ByCompany responded code: 200 in 535.4365 ms
2021-12-01 12:38:00.145 +07:00 ReqID:[5b6565c8-7f21-463c-b653-871e923dc87e] [INF] HTTP POST /api/v2/JobType/GetJobTypeList/ByCompany started.
2021-12-01 12:38:00.665 +07:00 ReqID:[5b6565c8-7f21-463c-b653-871e923dc87e] [INF] HTTP POST /api/v2/JobType/GetJobTypeList/ByCompany responded code: 200 in 518.1108 ms
2021-12-01 15:41:13.722 +07:00 ReqID:[0HMDKEB2SQUIR:00000001] [INF] HTTP OPTIONS /api/v2/JobType/GetJobTypeList/ByCompany started.
2021-12-01 15:41:13.725 +07:00 ReqID:[0HMDKEB2SQUIR:00000001] [INF] HTTP OPTIONS /api/v2/JobType/GetJobTypeList/ByCompany responded code: 204 in 0.6846 ms
2021-12-01 15:41:13.740 +07:00 ReqID:[e339a74e-bb98-4196-bfe0-2643577713e4] [INF] HTTP POST /api/v2/JobType/GetJobTypeList/ByCompany started.
2021-12-01 15:41:14.612 +07:00 ReqID:[e339a74e-bb98-4196-bfe0-2643577713e4] [INF] HTTP POST /api/v2/JobType/GetJobTypeList/ByCompany responded code: 200 in 870.3854 ms
